###### Progress log entry 2018-02-06 03:45:07 ######
Reinstalling all deployed packages...
###### Progress log entry 2018-02-06 03:45:09 ######
###### Progress log entry 2018-02-06 09:27:49 ######
###### Progress log entry 2018-02-07 08:58:27 ######
###### Progress log entry 2018-02-07 09:02:59 ######
Reinstalling all deployed packages...
###### Progress log entry 2018-02-07 09:03:01 ######
###### Progress log entry 2018-02-16 04:01:31 ######
Reinstalling all deployed packages...
###### Progress log entry 2018-02-16 04:01:32 ######
###### Progress log entry 2018-02-16 17:47:06 ######
###### Progress log entry 2018-02-16 17:51:10 ######
###### Progress log entry 2018-02-16 17:51:52 ######
###### Progress log entry 2018-02-16 17:51:59 ######
Reinstalling all deployed packages...
###### Progress log entry 2018-02-18 18:53:12 ######
###### Progress log entry 2018-02-19 08:33:22 ######
###### Progress log entry 2018-02-19 15:03:36 ######
###### Progress log entry 2018-02-19 17:04:22 ######
###### Progress log entry 2018-02-21 02:31:37 ######
###### Progress log entry 2018-02-21 02:32:46 ######
###### Progress log entry 2018-02-21 03:38:40 ######
###### Progress log entry 2018-02-21 23:36:38 ######
Reinstalling all deployed packages...
###### Progress log entry 2018-02-21 23:36:40 ######
###### Progress log entry 2018-02-23 19:41:53 ######
Reinstalling all deployed packages...
###### Progress log entry 2018-02-23 19:41:56 ######
###### Progress log entry 2018-02-25 20:37:40 ######
###### Progress log entry 2018-02-26 01:49:01 ######
###### Progress log entry 2018-02-26 01:49:06 ######
Reinstalling all deployed packages...
###### Progress log entry 2018-02-26 01:49:08 ######
###### Progress log entry 2018-03-07 21:11:28 ######
Reinstalling all deployed packages...
###### Progress log entry 2018-03-07 21:11:34 ######
###### Progress log entry 2018-03-09 08:21:44 ######
###### Progress log entry 2018-03-12 17:47:21 ######
###### Progress log entry 2018-03-19 04:49:41 ######
Reinstalling all deployed packages...
###### Progress log entry 2018-03-19 21:29:16 ######
Reinstalling all deployed packages...
###### Progress log entry 2018-03-19 21:29:17 ######
###### Progress log entry 2018-03-19 22:31:31 ######
###### Progress log entry 2018-03-21 02:40:14 ######
###### Progress log entry 2018-03-21 04:43:43 ######
Reinstalling all deployed packages...
###### Progress log entry 2018-03-21 04:44:08 ######
Reinstalling all deployed packages...
###### Progress log entry 2018-03-21 04:46:33 ######
Reinstalling all deployed packages...
###### Progress log entry 2018-03-21 04:47:56 ######
Reinstalling all deployed packages...
###### Progress log entry 2018-03-21 04:48:01 ######
###### Progress log entry 2018-03-21 04:49:13 ######
Reinstalling all deployed packages...
###### Progress log entry 2018-03-21 14:58:35 ######
Reinstalling all deployed packages...
###### Progress log entry 2018-03-21 14:58:40 ######
###### Progress log entry 2018-03-21 15:03:41 ######
###### Progress log entry 2018-03-21 17:05:31 ######
###### Progress log entry 2018-03-22 15:33:14 ######
Reinstalling all deployed packages...
###### Progress log entry 2018-03-22 15:36:45 ######
Reinstalling all deployed packages...
###### Progress log entry 2018-03-22 15:36:47 ######
###### Progress log entry 2018-03-22 15:56:12 ######
Reinstalling all deployed packages...
###### Progress log entry 2018-03-23 13:15:53 ######
Reinstalling all deployed packages...
###### Progress log entry 2018-03-23 13:15:54 ######
###### Progress log entry 2018-03-26 14:50:06 ######
Reinstalling all deployed packages...
###### Progress log entry 2018-03-26 16:22:01 ######
Reinstalling all deployed packages...
###### Progress log entry 2018-03-26 16:22:04 ######
###### Progress log entry 2018-03-26 17:04:22 ######
Reinstalling all deployed packages...
###### Progress log entry 2018-03-26 22:00:25 ######
Reinstalling all deployed packages...
###### Progress log entry 2018-03-26 22:00:28 ######
###### Progress log entry 2018-03-28 16:13:20 ######
Reinstalling all deployed packages...
###### Progress log###### Progress log entry 2018-03-28 19:36:05 ######
Reinstalling all deployed packages...
###### Progress log entry 2018-03-28 19:36:06 ######
###### Progress log entry 2018-03-28 22:27:06 ######
###### Progress log entry 2018-04-05 11:00:11 ######
Reinstalling all deployed packages...
###### Progress log entry 2018-04-06 10:52:50 ######
Reinstalling all deployed packages...
###### Progress log entry 2018-04-06 10:52:53 ######
###### Progress log entry 2018-04-12 11:43:43 ######
Reinstalling all deployed packages...
###### Progress log entry 2018-04-12 11:43:45 ######
###### Progress log entry 2018-04-18 14:32:07 ######
Reinstalling all deployed packages...
###### Progress log entry 2018-04-18 14:32:08 ######
###### Progress log entry 2018-04-18 14:34:22 ######
###### Progress log entry 2018-04-19 19:37:15 ######
Reinstalling all deployed packages...
###### Progress log entry 2018-04-20 00:54:26 ######
Reinstalling all deployed packages...
###### Progress log entry 2018-04-20 00:54:28 ######
###### Progress log entry 2018-05-04 16:47:19 ######
Reinstalling all deployed packages...
###### Progress log entry 2018-05-09 11:41:54 ######
Reinstalling all deployed packages...
###### Progress log entry 2018-05-09 11:42:02 ######
###### Progress log entry 2018-05-14 00:06:21 ######
Reinstalling all deployed packages...
###### Progress log entry 2018-05-14 00:06:26 ######
###### Progress log entry 2018-05-15 16:19:34 ######
###### Progress log entry 2018-05-15 16:20:09 ######
###### Progress log entry 2018-05-25 02:03:24 ######
###### Progress log entry 2018-05-28 21:57:53 ######
Reinstalling all deployed packages...
###### Progress log entry 2018-05-28 21:57:54 ######
###### Progress log entry 2018-05-28 21:59:11 ######
Reinstalling all deployed packages...
###### Progress log entry 2018-05-28 21:59:13 ######
###### Progress log entry 2018-05-28 22:09:52 ######
###### Progress log entry 2018-06-14 18:07:59 ######
###### Progress log entry 2018-06-14 21:03:11 ######
###### Progress log entry 2018-06-14 22:51:39 ######
###### Progress log entry 2018-06-14 23:12:41 ######
###### Progress log entry 2018-06-14 23:31:22 ######
###### Progress log entry 2018-06-14 23:43:16 ######
###### Progress log entry 2018-06-14 23:43:30 ######
###### Progress log entry 2018-06-14 23:43:51 ######
###### Progress log entry 2018-06-26 16:39:22 ######
###### Progress log entry 2018-06-27 15:35:56 ######
###### Progress log entry 2018-06-27 16:51:33 ######
###### Progress log entry 2018-06-29 08:45:46 ######
###### Progress log entry 2018-07-02 15:33:27 ######
###### Progress log entry 2018-07-02 15:33:37 ######
###### Progress log entry 2018-07-02 15:51:57 ######
###### Progress log entry 2018-07-03 09:53:29 ######
Reinstalling all deployed packages...
###### Progress log entry 2018-07-03 09:53:34 ######
###### Progress log entry 2018-07-03 10:03:09 ######
Reinstalling all deployed packages...
###### Progress log entry 2018-07-03 10:03:11 ######
###### Progress log entry 2018-07-03 10:23:32 ######
###### Progress log entry 2018-07-03 10:23:44 ######
###### Progress log entry 2018-07-03 10:25:57 ######
###### Progress log entry 2018-07-03 12:18:29 ######
###### Progress log entry 2018-07-04 09:18:52 ######
###### Progress log entry 2018-07-08 15:02:49 ######
###### Progress log entry 2018-07-08 15:04:11 ######
###### Progress log entry 2018-07-08 16:45:39 ######
###### Progress log entry 2018-07-08 16:45:48 ######
###### Progress log entry 2018-07-08 16:53:21 ######
###### Progress log entry 2018-08-05 23:24:00 ######
Reinstalling all deployed packages...
###### Progress log entry 2018-08-06 04:25:10 ######
Reinstalling all deployed packages...
###### Progress log entry 2018-08-06 04:25:20 ######
###### Progress log entry 2018-08-15 15:42:03 ######
Reinstalling all deployed packages...
###### Progress log entry 2018-08-15 15:42:10 ######
###### Progress log entry 2018-08-15 17:14:29 ######
###### Progress log entry 2018-08-15 17:14:46 ######
###### Progress log entry 2018-08-15 17:16:16 ######
###### Progress log entry 2018-08-15 17:17:09 ######
###### Progress log entry 2018-09-05 16:42:33 ######
Reinstalling all deployed packages...
###### Progress log entry 2018-09-05 16:42:47 ######
###### Progress log entry 2018-09-05 16:43:32 ######
###### Progress log entry 2018-09-08 11:22:41 ######
###### Progress log entry 2018-09-09 11:56:03 ######
###### Progress log entry 2018-09-09 15:03:37 ######
###### Progress log entry 2018-09-12 15:20:39 ######
###### Progress log entry 2018-09-19 15:46:27 ######
###### Progress log entry 2018-09-27 02:17:41 ######
###### Progress log entry 2018-09-30 23:02:39 ######
###### Progress log entry 2018-10-01 06:49:16 ######
###### Progress log entry 2018-10-04 21:07:54 ######
###### Progress log entry 2018-10-31 17:38:03 ######
Reinstalling all deployed packages...
###### Progress log entry 2018-10-31 17:38:14 ######
###### Progress log entry 2018-11-05 23:14:37 ######
###### Progress log entry 2018-11-24 19:15:54 ######
###### Progress log entry 2018-12-05 15:35:34 ######
###### Progress log entry 2018-12-13 11:53:53 ######
###### Progress log entry 2019-01-23 09:17:01 ######
Reinstalling all deployed packages...
###### Progress log entry 2019-01-23 09:17:12 ######
###### Progress log entry 2019-01-23 19:57:23 ######
