13:34:45.072: CPU Name: Intel(R) Core(TM) i5-7200U CPU @ 2.50GHz
13:34:45.072: CPU Speed: 3100.376MHz
13:34:45.072: Physical Cores: 2, Logical Cores: 4
13:34:45.072: Physical Memory: 11892MB Total, 5565MB Free
13:34:45.072: Kernel Version: Linux 4.20.3-200.fc29.x86_64
13:34:45.072: Distribution: Fedora 29
13:34:45.073: Window System: X11.0 - vendor string: Fedora Project - vendor release: 12003000
13:34:45.073: Portable mode: false
13:34:45.090: OBS 22.0.3 (linux)
13:34:45.090: ---------------------------------
13:34:45.090: ---------------------------------
13:34:45.090: audio settings reset:
13:34:45.090: 	samples per sec: 44100
13:34:45.090: 	speakers:        2
13:34:45.097: ---------------------------------
13:34:45.097: Initializing OpenGL...
13:34:45.132: Loading up OpenGL on adapter Intel Open Source Technology Center Mesa DRI Intel(R) HD Graphics 620 (Kaby Lake GT2) 
13:34:45.132: OpenGL loaded successfully, version 4.5 (Core Profile) Mesa 18.2.8, shading language 4.50
13:34:45.152: ---------------------------------
13:34:45.152: video settings reset:
13:34:45.152: 	base resolution:   1920x1080
13:34:45.152: 	output resolution: 960x540
13:34:45.152: 	downscale filter:  Bicubic
13:34:45.152: 	fps:               30/1
13:34:45.152: 	format:            NV12
13:34:45.152: 	YUV mode:          601/Partial
13:34:45.159: Audio monitoring device:
13:34:45.159: 	name: Default
13:34:45.159: 	id: default
13:34:45.159: ---------------------------------
13:34:45.217: No blackmagic support
13:34:45.231: os_dlopen(libnvidia-encode.so.1->libnvidia-encode.so.1): libnvidia-encode.so.1: cannot open shared object file: No such file or directory
13:34:45.231: 
13:34:45.243: VLC found, VLC video source enabled
13:34:45.243: ---------------------------------
13:34:45.243:   Loaded Modules:
13:34:45.243:     vlc-video.so
13:34:45.243:     text-freetype2.so
13:34:45.243:     rtmp-services.so
13:34:45.243:     obs-x264.so
13:34:45.243:     obs-transitions.so
13:34:45.243:     obs-outputs.so
13:34:45.243:     obs-filters.so
13:34:45.243:     obs-ffmpeg.so
13:34:45.243:     linux-v4l2.so
13:34:45.243:     linux-pulseaudio.so
13:34:45.243:     linux-jack.so
13:34:45.243:     linux-decklink.so
13:34:45.243:     linux-capture.so
13:34:45.243:     linux-alsa.so
13:34:45.243:     image-source.so
13:34:45.243:     frontend-tools.so
13:34:45.243: ---------------------------------
13:34:45.243: ==== Startup complete ===============================================
13:34:45.243: Service '' not found
13:34:45.245: All scene data cleared
13:34:45.245: ------------------------------------------------
13:34:45.247: pulse-input: Server name: 'pulseaudio 12.2-rebootstrapped'
13:34:45.247: pulse-input: Audio format: s16le, 44100 Hz, 2 channels
13:34:45.247: pulse-input: Started recording from 'alsa_output.pci-0000_00_1f.3.analog-stereo.monitor'
13:34:45.248: pulse-input: Server name: 'pulseaudio 12.2-rebootstrapped'
13:34:45.249: pulse-input: Audio format: s16le, 48000 Hz, 2 channels
13:34:45.249: pulse-input: Started recording from 'alsa_input.pci-0000_00_1f.3.analog-stereo'
13:34:45.249: xshm-input: Geometry 1920x1080 @ 0,0
13:34:45.270: Switched to scene 'Scene'
13:34:45.270: ------------------------------------------------
13:34:45.270: Loaded scenes:
13:34:45.270: - scene 'Scene':
13:34:45.270:     - source: 'Window Capture (Xcomposite)' (xcomposite_input)
13:34:45.270:     - source: 'Screen Capture (XSHM)' (xshm_input)
13:34:45.270: ------------------------------------------------
13:34:45.761: adding 23 milliseconds of audio buffering, total audio buffering is now 23 milliseconds
13:34:46.716: adding 23 milliseconds of audio buffering, total audio buffering is now 46 milliseconds
13:36:03.726: ---------------------------------
13:36:03.727: video settings reset:
13:36:03.727: 	base resolution:   1920x1080
13:36:03.727: 	output resolution: 1920x1080
13:36:03.727: 	downscale filter:  Lanczos
13:36:03.727: 	fps:               30/1
13:36:03.727: 	format:            NV12
13:36:03.727: 	YUV mode:          601/Partial
13:36:03.758: Settings changed (video)
13:36:03.758: ------------------------------------------------
13:36:11.339: ---------------------------------
13:36:11.339: [x264 encoder: 'simple_h264_recording'] preset: veryfast
13:36:11.339: [x264 encoder: 'simple_h264_recording'] profile: high
13:36:11.339: [x264 encoder: 'simple_h264_recording'] settings:
13:36:11.339: 	rate_control: CRF
13:36:11.339: 	bitrate:      0
13:36:11.339: 	buffer size:  0
13:36:11.339: 	crf:          23
13:36:11.339: 	fps_num:      30
13:36:11.339: 	fps_den:      1
13:36:11.339: 	width:        1920
13:36:11.339: 	height:       1080
13:36:11.339: 	keyint:       250
13:36:11.339: 
13:36:11.349: ---------------------------------
13:36:11.350: [FFmpeg aac encoder: 'simple_aac_recording'] bitrate: 128, channels: 2, channel_layout: 3
13:36:11.350: 
13:36:11.358: ==== Recording Start ===============================================
13:36:11.358: [ffmpeg muxer: 'simple_file_output'] Writing file '/home/wmb1207/2019-01-24 13-36-11.flv'...
13:36:25.532: [ffmpeg muxer: 'simple_file_output'] Output of file '/home/wmb1207/2019-01-24 13-36-11.flv' stopped
13:36:25.532: Output 'simple_file_output': stopping
13:36:25.532: Output 'simple_file_output': Total frames output: 401
13:36:25.532: Output 'simple_file_output': Total drawn frames: 424 (425 attempted)
13:36:25.532: Output 'simple_file_output': Number of lagged frames due to rendering lag/stalls: 1 (0,2%)
13:36:25.532: ==== Recording Stop ================================================
13:36:29.202: ==== Shutting down ==================================================
13:36:29.210: Switched to scene '(null)'
13:36:29.216: X Error: BadPixmap (invalid Pixmap parameter), Major opcode: 54, Minor opcode: 0, Serial: 60
13:36:29.217: pulse-input: Stopped recording from 'alsa_output.pci-0000_00_1f.3.analog-stereo.monitor'
13:36:29.217: pulse-input: Got 20836 packets with 4644248 frames
13:36:29.218: pulse-input: Stopped recording from 'alsa_input.pci-0000_00_1f.3.analog-stereo'
13:36:29.218: pulse-input: Got 10544 packets with 4990296 frames
13:36:29.219: All scene data cleared
13:36:29.219: ------------------------------------------------
13:36:29.274: Freeing OBS context data
13:36:29.293: [Scripting] Total detached callbacks: 0
13:36:29.307: == Profiler Results =============================
13:36:29.307: run_program_init: 329,878 ms
13:36:29.307:  ┣OBSApp::AppInit: 1,734 ms
13:36:29.307:  ┃ ┗OBSApp::InitLocale: 0,794 ms
13:36:29.307:  ┗OBSApp::OBSInit: 309,273 ms
13:36:29.307:    ┣obs_startup: 14,141 ms
13:36:29.307:    ┗OBSBasic::OBSInit: 214,226 ms
13:36:29.307:      ┣OBSBasic::InitBasicConfig: 0,073 ms
13:36:29.307:      ┣OBSBasic::ResetAudio: 0,151 ms
13:36:29.307:      ┣OBSBasic::ResetVideo: 68,959 ms
13:36:29.307:      ┣OBSBasic::InitOBSCallbacks: 0,004 ms
13:36:29.307:      ┣OBSBasic::InitHotkeys: 0,033 ms
13:36:29.307:      ┣obs_load_all_modules: 83,722 ms
13:36:29.307:      ┃ ┣obs_init_module(frontend-tools.so): 43,763 ms
13:36:29.307:      ┃ ┣obs_init_module(image-source.so): 0,002 ms
13:36:29.307:      ┃ ┣obs_init_module(linux-alsa.so): 0,001 ms
13:36:29.307:      ┃ ┣obs_init_module(linux-capture.so): 0,541 ms
13:36:29.307:      ┃ ┣obs_init_module(linux-decklink.so): 0,129 ms
13:36:29.307:      ┃ ┣obs_init_module(linux-jack.so): 0,002 ms
13:36:29.307:      ┃ ┣obs_init_module(linux-pulseaudio.so): 0,001 ms
13:36:29.307:      ┃ ┣obs_init_module(linux-v4l2.so): 0,001 ms
13:36:29.307:      ┃ ┣obs_init_module(obs-ffmpeg.so): 0,406 ms
13:36:29.307:      ┃ ┃ ┗nvenc_check: 0,402 ms
13:36:29.307:      ┃ ┣obs_init_module(obs-filters.so): 0,006 ms
13:36:29.307:      ┃ ┣obs_init_module(obs-outputs.so): 0,002 ms
13:36:29.307:      ┃ ┣obs_init_module(obs-transitions.so): 0,009 ms
13:36:29.307:      ┃ ┣obs_init_module(obs-x264.so): 0,004 ms
13:36:29.307:      ┃ ┣obs_init_module(rtmp-services.so): 0,571 ms
13:36:29.307:      ┃ ┣obs_init_module(text-freetype2.so): 0,009 ms
13:36:29.307:      ┃ ┗obs_init_module(vlc-video.so): 2,282 ms
13:36:29.307:      ┣OBSBasic::ResetOutputs: 0,092 ms
13:36:29.307:      ┣OBSBasic::CreateHotkeys: 0,016 ms
13:36:29.307:      ┣OBSBasic::InitService: 0,84 ms
13:36:29.307:      ┣OBSBasic::InitPrimitives: 0,174 ms
13:36:29.307:      ┗OBSBasic::Load: 28,004 ms
13:36:29.307: obs_hotkey_thread(25 ms): min=0,062 ms, median=0,603 ms, max=86,697 ms, 99th percentile=4,65 ms, 99,8256% below 25 ms
13:36:29.307: audio_thread(Audio): min=0 ms, median=0,2 ms, max=4,072 ms, 99th percentile=1,202 ms
13:36:29.307:  ┗receive_audio: min=0,002 ms, median=0,432 ms, max=3,746 ms, 99th percentile=1,898 ms, 0,13718 calls per parent call
13:36:29.307:    ┣buffer_audio: min=0,001 ms, median=0,001 ms, max=0,055 ms, 99th percentile=0,013 ms
13:36:29.307:    ┗do_encode: min=0,065 ms, median=0,428 ms, max=3,742 ms, 99th percentile=1,791 ms
13:36:29.307:      ┗encode(simple_aac_recording): min=0,058 ms, median=0,421 ms, max=3,736 ms, 99th percentile=1,786 ms
13:36:29.307: obs_graphics_thread(33,3333 ms): min=0,042 ms, median=1,428 ms, max=92,494 ms, 99th percentile=7,527 ms, 99,7878% below 33,333 ms
13:36:29.307:  ┣tick_sources: min=0 ms, median=0,02 ms, max=10,75 ms, 99th percentile=0,092 ms
13:36:29.307:  ┣output_frame: min=0,037 ms, median=0,181 ms, max=35,855 ms, 99th percentile=0,552 ms
13:36:29.307:  ┃ ┗gs_context(video->graphics): min=0,037 ms, median=0,181 ms, max=35,854 ms, 99th percentile=0,55 ms
13:36:29.307:  ┃   ┣render_video: min=0,021 ms, median=0,123 ms, max=35,773 ms, 99th percentile=0,451 ms
13:36:29.307:  ┃   ┃ ┗render_main_texture: min=0,017 ms, median=0,111 ms, max=35,754 ms, 99th percentile=0,44 ms
13:36:29.307:  ┃   ┗gs_flush: min=0 ms, median=0,002 ms, max=0,058 ms, 99th percentile=0,005 ms
13:36:29.307:  ┗render_displays: min=0,002 ms, median=1,209 ms, max=92,277 ms, 99th percentile=4,79 ms
13:36:29.307: OBSBasic::ResetVideo: 31,193 ms
13:36:29.307: obs_graphics_thread(33,3333 ms): min=0,229 ms, median=5,123 ms, max=78,892 ms, 99th percentile=15,481 ms, 99,6073% below 33,333 ms
13:36:29.307:  ┣tick_sources: min=0,004 ms, median=2,941 ms, max=39,705 ms, 99th percentile=8,76 ms
13:36:29.307:  ┣output_frame: min=0,06 ms, median=0,886 ms, max=15,776 ms, 99th percentile=3,778 ms
13:36:29.307:  ┃ ┣gs_context(video->graphics): min=0,059 ms, median=0,266 ms, max=7,781 ms, 99th percentile=1,137 ms
13:36:29.307:  ┃ ┃ ┣render_video: min=0,04 ms, median=0,21 ms, max=7,733 ms, 99th percentile=0,951 ms
13:36:29.307:  ┃ ┃ ┃ ┣render_main_texture: min=0,036 ms, median=0,134 ms, max=7,724 ms, 99th percentile=0,688 ms
13:36:29.307:  ┃ ┃ ┃ ┣render_output_texture: min=0,001 ms, median=0,03 ms, max=3,994 ms, 99th percentile=0,235 ms, 0,556283 calls per parent call
13:36:29.307:  ┃ ┃ ┃ ┣render_convert_texture: min=0,001 ms, median=0,031 ms, max=0,283 ms, 99th percentile=0,19 ms, 0,556283 calls per parent call
13:36:29.307:  ┃ ┃ ┃ ┗stage_output_texture: min=0 ms, median=0,016 ms, max=2,001 ms, 99th percentile=0,1 ms, 0,556283 calls per parent call
13:36:29.307:  ┃ ┃ ┣gs_flush: min=0,001 ms, median=0,036 ms, max=0,437 ms, 99th percentile=0,205 ms
13:36:29.307:  ┃ ┃ ┗download_frame: min=0 ms, median=0,003 ms, max=0,137 ms, 99th percentile=0,028 ms, 0,556283 calls per parent call
13:36:29.307:  ┃ ┗output_video_data: min=0,429 ms, median=0,863 ms, max=14,777 ms, 99th percentile=3,198 ms, 0,551047 calls per parent call
13:36:29.307:  ┗render_displays: min=0,01 ms, median=1,172 ms, max=58,072 ms, 99th percentile=5,734 ms
13:36:29.307: video_thread(video): min=1,973 ms, median=2,528 ms, max=11,604 ms, 99th percentile=6,706 ms
13:36:29.307:  ┗receive_video: min=1,971 ms, median=2,526 ms, max=11,594 ms, 99th percentile=6,459 ms
13:36:29.307:    ┗do_encode: min=1,97 ms, median=2,526 ms, max=11,593 ms, 99th percentile=6,457 ms
13:36:29.307:      ┗encode(simple_h264_recording): min=1,954 ms, median=2,508 ms, max=11,587 ms, 99th percentile=6,436 ms
13:36:29.308: =================================================
13:36:29.308: == Profiler Time Between Calls ==================
13:36:29.308: obs_hotkey_thread(25 ms): min=25,114 ms, median=25,736 ms, max=111,77 ms, 25,0436% within ±2% of 25 ms (0% lower, 74,9564% higher)
13:36:29.308: obs_graphics_thread(33,3333 ms): min=7,446 ms, median=33,333 ms, max=92,508 ms, 99,5754% within ±2% of 33,333 ms (0,212314% lower, 0,212314% higher)
13:36:29.308: obs_graphics_thread(33,3333 ms): min=18,174 ms, median=33,335 ms, max=78,902 ms, 99,0826% within ±2% of 33,333 ms (0,393185% lower, 0,524246% higher)
13:36:29.308: =================================================
13:36:29.328: Number of memory leaks: 0
