[2018-12-14 17:19:21.240] [exthost] [info] extension host started
[2018-12-14 17:19:21.274] [exthost] [info] ExtensionService#_doActivateExtension vscode.debug-auto-launch {"startup":true,"activationEvent":"*"}
[2018-12-14 17:19:21.274] [exthost] [info] ExtensionService#loadCommonJSModule /usr/share/code/resources/app/extensions/debug-auto-launch/dist/extension
[2018-12-14 17:19:21.281] [exthost] [info] ExtensionService#_doActivateExtension vscode.emmet {"startup":true,"activationEvent":"*"}
[2018-12-14 17:19:21.281] [exthost] [info] ExtensionService#loadCommonJSModule /usr/share/code/resources/app/extensions/emmet/dist/extension
[2018-12-14 17:19:21.305] [exthost] [info] ExtensionService#_doActivateExtension vscode.git {"startup":true,"activationEvent":"*"}
[2018-12-14 17:19:21.305] [exthost] [info] ExtensionService#loadCommonJSModule /usr/share/code/resources/app/extensions/git/dist/main
[2018-12-14 17:19:21.397] [exthost] [info] ExtensionService#_doActivateExtension vscode.merge-conflict {"startup":true,"activationEvent":"*"}
[2018-12-14 17:19:21.397] [exthost] [info] ExtensionService#loadCommonJSModule /usr/share/code/resources/app/extensions/merge-conflict/dist/extension
[2018-12-14 17:19:21.402] [exthost] [info] ExtensionService#_doActivateExtension vscodevim.vim {"startup":true,"activationEvent":"*"}
[2018-12-14 17:19:21.402] [exthost] [info] ExtensionService#loadCommonJSModule /home/wmb1207/.vscode/extensions/vscodevim.vim-0.16.14/out/extension
[2018-12-14 17:19:21.717] [exthost] [info] ExtensionService#_doActivateExtension vscode.python {"startup":false,"activationEvent":"onLanguage:python"}
[2018-12-14 17:19:21.717] [exthost] [info] ExtensionService#loadCommonJSModule /usr/share/code/resources/app/extensions/python/out/pythonMain
[2018-12-14 17:19:21.718] [exthost] [info] ExtensionService#_doActivateExtension ms-python.python {"startup":false,"activationEvent":"onLanguage:python"}
[2018-12-14 17:19:21.718] [exthost] [info] ExtensionService#loadCommonJSModule /home/wmb1207/.vscode/extensions/ms-python.python-2018.11.0/out/client/extension
[2018-12-14 17:19:22.093] [exthost] [info] eager extensions activated
