VirtualBox GUI VM Selector Window 5.2.24_RPMFusion r128122 linux.amd64 (Jan 17 2019 14:27:55) release log
00:00:00.358987 Log opened 2019-02-13T20:45:48.327603000Z
00:00:00.358988 Build Type: release
00:00:00.358989 OS Product: Linux
00:00:00.358990 OS Release: 4.20.7-200.fc29.x86_64
00:00:00.358991 OS Version: #1 SMP Wed Feb 6 19:16:42 UTC 2019
00:00:00.359012 DMI Product Name: X510UQ
00:00:00.359020 DMI Product Version: 1.0       
00:00:00.359050 Host RAM: 11892MB (11.6GB) total, 10107MB (9.8GB) available
00:00:00.359052 Executable: /usr/lib64/virtualbox/VirtualBox
00:00:00.359053 Process ID: 25501
00:00:00.359053 Package type: LINUX_64BITS_GENERIC (OSE)
00:00:00.359069 Qt version: 5.11.3
00:00:00.412649 GUI: UIMediumEnumerator: Medium-enumeration started...
00:00:00.591732 GUI: UIDesktopWidgetWatchdog::sltHandleHostScreenAvailableGeometryCalculated: Screen 0 work area is actually resized to: 540x967 x 538x951
00:00:00.599636 GUI: UIDesktopWidgetWatchdog::sltHandleHostScreenAvailableGeometryCalculated: Screen 1 work area is actually resized to: 0x14 x 1078x951
00:00:00.601906 GUI: UIMediumEnumerator: Medium-enumeration finished!
