00:00:01.620844 VirtualBox GUI VM Selector Window 6.0.4_RPMFusion r128164 linux.amd64 (Mar  5 2019 03:03:07) release log
00:00:01.620846 Log opened 2019-05-17T19:38:08.956230000Z
00:00:01.620847 Build Type: release
00:00:01.620855 OS Product: Linux
00:00:01.620856 OS Release: 5.0.9-301.fc30.x86_64
00:00:01.620857 OS Version: #1 SMP Tue Apr 23 23:57:35 UTC 2019
00:00:01.620929 DMI Product Name: X510UQ
00:00:01.620955 DMI Product Version: 1.0       
00:00:01.621031 Host RAM: 11893MB (11.6GB) total, 6477MB (6.3GB) available
00:00:01.621038 Executable: /usr/lib64/virtualbox/VirtualBox
00:00:01.621039 Process ID: 24526
00:00:01.621039 Package type: LINUX_64BITS_GENERIC (OSE)
00:00:01.621099 Qt version: 5.12.1
00:00:01.646243 GUI: UIMediumEnumerator: Medium-enumeration started...
00:00:01.646264 GUI: UIMediumEnumerator: Medium-enumeration finished!
00:00:01.966943 GUI: UIDesktopWidgetWatchdog::sltHandleHostScreenAvailableGeometryCalculated: Screen 0 work area is actually resized to: 0x1080 x 994x1076
00:00:01.970612 GUI: UIDesktopWidgetWatchdog::sltHandleHostScreenAvailableGeometryCalculated: Screen 1 work area is actually resized to: 998x1080 x 918x1076
