VirtualBox GUI VM Selector Window 5.2.24_RPMFusion r128122 linux.amd64 (Jan 17 2019 14:27:55) release log
00:00:00.586900 Log opened 2019-02-13T20:44:31.893456000Z
00:00:00.586901 Build Type: release
00:00:00.586903 OS Product: Linux
00:00:00.586904 OS Release: 4.20.7-200.fc29.x86_64
00:00:00.586905 OS Version: #1 SMP Wed Feb 6 19:16:42 UTC 2019
00:00:00.587089 DMI Product Name: X510UQ
00:00:00.587103 DMI Product Version: 1.0       
00:00:00.587140 Host RAM: 11892MB (11.6GB) total, 10119MB (9.8GB) available
00:00:00.587143 Executable: /usr/lib64/virtualbox/VirtualBox
00:00:00.587144 Process ID: 24810
00:00:00.587144 Package type: LINUX_64BITS_GENERIC (OSE)
00:00:00.587168 Qt version: 5.11.3
00:00:00.655738 GUI: UIMediumEnumerator: Medium-enumeration started...
00:00:00.928171 GUI: UIDesktopWidgetWatchdog::sltHandleHostScreenAvailableGeometryCalculated: Screen 0 work area is actually resized to: 540x967 x 538x951
00:00:00.931651 GUI: UIDesktopWidgetWatchdog::sltHandleHostScreenAvailableGeometryCalculated: Screen 1 work area is actually resized to: 0x14 x 1078x951
00:00:00.976944 Failed to open "/dev/vboxdrv", errno=13, rc=VERR_VM_DRIVER_NOT_ACCESSIBLE
00:00:00.978798 GUI: UIMediumEnumerator: Medium-enumeration finished!
