VirtualBox XPCOM Server 5.2.22_RPMFusion r126257 linux.amd64 (Nov 10 2018 13:50:06) release log
00:00:00.004301 main     Log opened 2019-01-17T03:45:06.837526000Z
00:00:00.004306 main     Build Type: release
00:00:00.004320 main     OS Product: Linux
00:00:00.004322 main     OS Release: 4.19.14-300.fc29.x86_64
00:00:00.004323 main     OS Version: #1 SMP Wed Jan 9 21:30:35 UTC 2019
00:00:00.004460 main     DMI Product Name: X510UQ
00:00:00.004513 main     DMI Product Version: 1.0       
00:00:00.004724 main     Host RAM: 11893MB (11.6GB) total, 10600MB (10.3GB) available
00:00:00.004743 main     Executable: /usr/lib64/virtualbox/VBoxSVC
00:00:00.004744 main     Process ID: 3751
00:00:00.004745 main     Package type: LINUX_64BITS_GENERIC (OSE)
00:00:00.007672 main     IPC socket path: /tmp/.vbox-wmb1207-ipc/ipcd
00:00:00.116258 nspr-2   VirtualBox: object creation starts
00:00:00.117753 nspr-2   Home directory: '/home/wmb1207/.config/VirtualBox'
00:00:00.118395 nspr-2   Loading settings file "/home/wmb1207/.config/VirtualBox/VirtualBox.xml" with version "1.12-linux"
00:00:00.145086 nspr-2   NetIfAdpCtlOut: VBoxNetAdpCtl: Error while retrieving link speed for wlp2s0: VBoxNetAdpCtl: ioctl failed: Operation not supported
00:00:00.147019 nspr-2   NAT: resolv.conf: nameserver 200.42.4.204
00:00:00.147037 nspr-2   NAT: resolv.conf: nameserver 200.49.130.40
00:00:00.147047 nspr-2   HostDnsMonitor: old information
00:00:00.147050 nspr-2     no server entries
00:00:00.147052 nspr-2     no domain set
00:00:00.147054 nspr-2     no search string entries
00:00:00.147056 nspr-2   HostDnsMonitor: new information
00:00:00.147058 nspr-2     server 1: 200.42.4.204
00:00:00.147061 nspr-2     server 2: 200.49.130.40
00:00:00.147063 nspr-2     no domain set
00:00:00.147065 nspr-2     no search string entries
00:00:00.147409 nspr-2   HostDnsMonitorProxy::notify
00:00:00.155555 nspr-2   VD: VDInit finished with VINF_SUCCESS
00:00:00.156122 nspr-2   ERROR [COM]: aRC=NS_ERROR_FAILURE (0x80004005) aIID={0eb668d2-495e-5a36-8890-29999b5f030c} aComponent={SystemPropertiesWrap} aText={Cannot determine default Guest Additions ISO location. Most likely they are not available}, preserve=false aResultDetail=0
00:00:00.173539 nspr-2   Loading settings file "/home/wmb1207/VirtualBox VMs/Fedora/Fedora.vbox" with version "1.16-linux"
00:00:00.174431 nspr-2   Loading settings file "/home/wmb1207/VirtualBox VMs/BDA/BDA.vbox" with version "1.16-linux"
00:00:00.175195 nspr-2   Loading settings file "/home/wmb1207/VirtualBox VMs/Void Linux/Void Linux.vbox" with version "1.16-linux"
00:00:00.184360 nspr-2   VirtualBox: object created
00:00:03.987967 nspr-4   Saving settings file "/home/wmb1207/.config/VirtualBox/VirtualBox.xml" with version "1.12-linux"
00:00:04.013868 nspr-5   Saving settings file "/home/wmb1207/.config/VirtualBox/VirtualBox.xml" with version "1.12-linux"
00:00:26.420363 nspr-2   Saving settings file "/home/wmb1207/VirtualBox VMs/Fedora minimal/Fedora minimal.vbox" with version "1.16-linux"
00:00:26.443203 nspr-3   WARNING [COM]: aRC=NS_ERROR_FAILURE (0x80004005) aIID={afca788c-4477-787d-60b2-3fa70e56fbbc} aComponent={HostWrap} aText={VirtualBox is not currently allowed to access USB devices.  You can change this by adding your user to the 'vboxusers' group.  Please see the user manual for a more detailed explanation}, preserve=true  aResultDetail=0
00:00:26.460157 nspr-3   Saving settings file "/home/wmb1207/VirtualBox VMs/Fedora minimal/Fedora minimal.vbox" with version "1.16-linux"
00:00:26.468416 nspr-3   Saving settings file "/home/wmb1207/.config/VirtualBox/VirtualBox.xml" with version "1.12-linux"
00:00:26.487470 nspr-2   Saving settings file "/home/wmb1207/VirtualBox VMs/Fedora minimal/Fedora minimal.vbox" with version "1.16-linux"
00:00:26.531912 nspr-2   ERROR [COM]: aRC=NS_ERROR_FAILURE (0x80004005) aIID={85cd948e-a71f-4289-281e-0ca7ad48cd89} aComponent={MachineWrap} aText={This machine does not have any snapshots}, preserve=false aResultDetail=0
00:00:28.974816 nspr-5   WARNING [COM]: aRC=NS_ERROR_FAILURE (0x80004005) aIID={afca788c-4477-787d-60b2-3fa70e56fbbc} aComponent={HostWrap} aText={VirtualBox is not currently allowed to access USB devices.  You can change this by adding your user to the 'vboxusers' group.  Please see the user manual for a more detailed explanation}, preserve=true  aResultDetail=0
00:00:29.244883 nspr-4   NetIfAdpCtlOut: VBoxNetAdpCtl: Error while retrieving link speed for wlp2s0: VBoxNetAdpCtl: ioctl failed: Operation not supported
00:00:29.263699 nspr-5   NetIfAdpCtlOut: VBoxNetAdpCtl: Error while retrieving link speed for wlp2s0: VBoxNetAdpCtl: ioctl failed: Operation not supported
00:00:29.289213 nspr-4   WARNING [COM]: aRC=NS_ERROR_FAILURE (0x80004005) aIID={afca788c-4477-787d-60b2-3fa70e56fbbc} aComponent={HostWrap} aText={VirtualBox is not currently allowed to access USB devices.  You can change this by adding your user to the 'vboxusers' group.  Please see the user manual for a more detailed explanation}, preserve=true  aResultDetail=0
00:00:29.290148 nspr-5   WARNING [COM]: aRC=NS_ERROR_FAILURE (0x80004005) aIID={afca788c-4477-787d-60b2-3fa70e56fbbc} aComponent={HostWrap} aText={VirtualBox is not currently allowed to access USB devices.  You can change this by adding your user to the 'vboxusers' group.  Please see the user manual for a more detailed explanation}, preserve=true  aResultDetail=0
00:00:48.050073 nspr-4   WARNING [COM]: aRC=NS_ERROR_FAILURE (0x80004005) aIID={afca788c-4477-787d-60b2-3fa70e56fbbc} aComponent={HostWrap} aText={VirtualBox is not currently allowed to access USB devices.  You can change this by adding your user to the 'vboxusers' group.  Please see the user manual for a more detailed explanation}, preserve=true  aResultDetail=0
00:00:48.051829 nspr-4   Saving settings file "/home/wmb1207/VirtualBox VMs/Fedora minimal/Fedora minimal.vbox" with version "1.16-linux"
00:00:51.084946 nspr-2   WARNING [COM]: aRC=NS_ERROR_FAILURE (0x80004005) aIID={afca788c-4477-787d-60b2-3fa70e56fbbc} aComponent={HostWrap} aText={VirtualBox is not currently allowed to access USB devices.  You can change this by adding your user to the 'vboxusers' group.  Please see the user manual for a more detailed explanation}, preserve=true  aResultDetail=0
00:00:51.085758 nspr-6   WARNING [COM]: aRC=NS_ERROR_FAILURE (0x80004005) aIID={afca788c-4477-787d-60b2-3fa70e56fbbc} aComponent={HostWrap} aText={VirtualBox is not currently allowed to access USB devices.  You can change this by adding your user to the 'vboxusers' group.  Please see the user manual for a more detailed explanation}, preserve=true  aResultDetail=0
00:00:51.087762 nspr-2   Load [/usr/lib64/virtualbox/ExtensionPacks/Oracle_VM_VirtualBox_Extension_Pack/linux.amd64/VBoxHostWebcam.so] rc VINF_SUCCESS
00:00:51.185611 nspr-6   WARNING [COM]: aRC=NS_ERROR_FAILURE (0x80004005) aIID={afca788c-4477-787d-60b2-3fa70e56fbbc} aComponent={HostWrap} aText={VirtualBox is not currently allowed to access USB devices.  You can change this by adding your user to the 'vboxusers' group.  Please see the user manual for a more detailed explanation}, preserve=true  aResultDetail=0
00:00:51.247996 nspr-2   WARNING [COM]: aRC=NS_ERROR_FAILURE (0x80004005) aIID={afca788c-4477-787d-60b2-3fa70e56fbbc} aComponent={HostWrap} aText={VirtualBox is not currently allowed to access USB devices.  You can change this by adding your user to the 'vboxusers' group.  Please see the user manual for a more detailed explanation}, preserve=true  aResultDetail=0
00:00:51.248866 nspr-6   WARNING [COM]: aRC=NS_ERROR_FAILURE (0x80004005) aIID={afca788c-4477-787d-60b2-3fa70e56fbbc} aComponent={HostWrap} aText={VirtualBox is not currently allowed to access USB devices.  You can change this by adding your user to the 'vboxusers' group.  Please see the user manual for a more detailed explanation}, preserve=true  aResultDetail=0
00:00:51.362565 nspr-6   ERROR [COM]: aRC=VBOX_E_IPRT_ERROR (0x80bb0005) aIID={85cd948e-a71f-4289-281e-0ca7ad48cd89} aComponent={SessionMachine} aText={Saved screenshot data is not available (VERR_NOT_SUPPORTED)}, preserve=false aResultDetail=0
00:00:51.410545 nspr-3   NetIfAdpCtlOut: VBoxNetAdpCtl: Error while retrieving link speed for wlp2s0: VBoxNetAdpCtl: ioctl failed: Operation not supported
00:00:54.937364 nspr-2   Saving settings file "/home/wmb1207/.config/VirtualBox/VirtualBox.xml" with version "1.12-linux"
00:00:56.349027 nspr-3   Saving settings file "/home/wmb1207/VirtualBox VMs/Fedora minimal/Fedora minimal.vbox" with version "1.16-linux"
00:00:56.509094 nspr-3   WARNING [COM]: aRC=NS_ERROR_FAILURE (0x80004005) aIID={afca788c-4477-787d-60b2-3fa70e56fbbc} aComponent={HostWrap} aText={VirtualBox is not currently allowed to access USB devices.  You can change this by adding your user to the 'vboxusers' group.  Please see the user manual for a more detailed explanation}, preserve=true  aResultDetail=0
00:00:56.574879 nspr-2   NetIfAdpCtlOut: VBoxNetAdpCtl: Error while retrieving link speed for wlp2s0: VBoxNetAdpCtl: ioctl failed: Operation not supported
00:01:38.558152 nspr-7   Saving settings file "/home/wmb1207/VirtualBox VMs/Fedora minimal/Fedora minimal.vbox" with version "1.16-linux"
00:02:20.827984 nspr-4   Saving settings file "/home/wmb1207/VirtualBox VMs/Fedora minimal/Fedora minimal.vbox" with version "1.16-linux"
00:02:21.010105 nspr-3   ERROR [COM]: aRC=VBOX_E_IPRT_ERROR (0x80bb0005) aIID={85cd948e-a71f-4289-281e-0ca7ad48cd89} aComponent={SessionMachine} aText={Saved screenshot data is not available (VERR_NOT_SUPPORTED)}, preserve=false aResultDetail=0
00:02:38.614738 main     Saving settings file "/home/wmb1207/VirtualBox VMs/Fedora minimal/Fedora minimal.vbox" with version "1.16-linux"
00:02:38.851217 Watcher  Reaper: Pid 3855 (f0f) exited normally: 1 (0x1)
00:02:40.488765 nspr-6   WARNING [COM]: aRC=NS_ERROR_FAILURE (0x80004005) aIID={afca788c-4477-787d-60b2-3fa70e56fbbc} aComponent={HostWrap} aText={VirtualBox is not currently allowed to access USB devices.  You can change this by adding your user to the 'vboxusers' group.  Please see the user manual for a more detailed explanation}, preserve=true  aResultDetail=0
00:02:40.490235 nspr-7   WARNING [COM]: aRC=NS_ERROR_FAILURE (0x80004005) aIID={afca788c-4477-787d-60b2-3fa70e56fbbc} aComponent={HostWrap} aText={VirtualBox is not currently allowed to access USB devices.  You can change this by adding your user to the 'vboxusers' group.  Please see the user manual for a more detailed explanation}, preserve=true  aResultDetail=0
00:02:40.491160 nspr-7   Load [/usr/lib64/virtualbox/ExtensionPacks/Oracle_VM_VirtualBox_Extension_Pack/linux.amd64/VBoxHostWebcam.so] rc VINF_SUCCESS
00:02:40.588622 nspr-3   WARNING [COM]: aRC=NS_ERROR_FAILURE (0x80004005) aIID={afca788c-4477-787d-60b2-3fa70e56fbbc} aComponent={HostWrap} aText={VirtualBox is not currently allowed to access USB devices.  You can change this by adding your user to the 'vboxusers' group.  Please see the user manual for a more detailed explanation}, preserve=true  aResultDetail=0
00:02:40.630431 nspr-5   WARNING [COM]: aRC=NS_ERROR_FAILURE (0x80004005) aIID={afca788c-4477-787d-60b2-3fa70e56fbbc} aComponent={HostWrap} aText={VirtualBox is not currently allowed to access USB devices.  You can change this by adding your user to the 'vboxusers' group.  Please see the user manual for a more detailed explanation}, preserve=true  aResultDetail=0
00:02:40.631286 nspr-6   WARNING [COM]: aRC=NS_ERROR_FAILURE (0x80004005) aIID={afca788c-4477-787d-60b2-3fa70e56fbbc} aComponent={HostWrap} aText={VirtualBox is not currently allowed to access USB devices.  You can change this by adding your user to the 'vboxusers' group.  Please see the user manual for a more detailed explanation}, preserve=true  aResultDetail=0
00:02:40.725780 nspr-6   ERROR [COM]: aRC=VBOX_E_IPRT_ERROR (0x80bb0005) aIID={85cd948e-a71f-4289-281e-0ca7ad48cd89} aComponent={SessionMachine} aText={Saved screenshot data is not available (VERR_NOT_SUPPORTED)}, preserve=false aResultDetail=0
00:02:40.758055 nspr-7   NetIfAdpCtlOut: VBoxNetAdpCtl: Error while retrieving link speed for wlp2s0: VBoxNetAdpCtl: ioctl failed: Operation not supported
00:02:42.160020 nspr-2   Saving settings file "/home/wmb1207/VirtualBox VMs/Fedora minimal/Fedora minimal.vbox" with version "1.16-linux"
00:02:42.279924 nspr-7   WARNING [COM]: aRC=NS_ERROR_FAILURE (0x80004005) aIID={afca788c-4477-787d-60b2-3fa70e56fbbc} aComponent={HostWrap} aText={VirtualBox is not currently allowed to access USB devices.  You can change this by adding your user to the 'vboxusers' group.  Please see the user manual for a more detailed explanation}, preserve=true  aResultDetail=0
00:02:42.349319 nspr-8   NetIfAdpCtlOut: VBoxNetAdpCtl: Error while retrieving link speed for wlp2s0: VBoxNetAdpCtl: ioctl failed: Operation not supported
00:02:46.472629 nspr-9   Saving settings file "/home/wmb1207/.config/VirtualBox/VirtualBox.xml" with version "1.12-linux"
00:02:49.489669 nspr-2   Saving settings file "/home/wmb1207/.config/VirtualBox/VirtualBox.xml" with version "1.12-linux"
00:02:52.504787 nspr-6   Saving settings file "/home/wmb1207/.config/VirtualBox/VirtualBox.xml" with version "1.12-linux"
00:02:53.167009 nspr-2   Saving settings file "/home/wmb1207/VirtualBox VMs/Fedora minimal/Fedora minimal.vbox" with version "1.16-linux"
00:02:53.286751 nspr-6   ERROR [COM]: aRC=VBOX_E_IPRT_ERROR (0x80bb0005) aIID={85cd948e-a71f-4289-281e-0ca7ad48cd89} aComponent={SessionMachine} aText={Saved screenshot data is not available (VERR_NOT_SUPPORTED)}, preserve=false aResultDetail=0
00:02:55.511828 nspr-3   Saving settings file "/home/wmb1207/.config/VirtualBox/VirtualBox.xml" with version "1.12-linux"
00:03:16.123963 main     Saving settings file "/home/wmb1207/VirtualBox VMs/Fedora minimal/Fedora minimal.vbox" with version "1.16-linux"
00:03:16.180872 Watcher  Reaper: Pid 3980 (f8c) exited normally: 1 (0x1)
00:03:21.123893 main     VirtualBox: object deletion starts
00:03:21.123952 main     ERROR [COM]: aRC=VBOX_E_OBJECT_IN_USE (0x80bb000c) aIID={4afe423b-43e0-e9d0-82e8-ceb307940dda} aComponent={MediumWrap} aText={Medium '/home/wmb1207/VirtualBox VMs/Fedora/Fedora.vdi' cannot be closed because it is still attached to 1 virtual machines}, preserve=false aResultDetail=0
00:03:21.124194 main     ERROR [COM]: aRC=VBOX_E_OBJECT_IN_USE (0x80bb000c) aIID={4afe423b-43e0-e9d0-82e8-ceb307940dda} aComponent={MediumWrap} aText={Medium '/home/wmb1207/VirtualBox VMs/srv-bda clonar.vdi' cannot be closed because it is still attached to 1 virtual machines}, preserve=false aResultDetail=0
00:03:21.124225 main     ERROR [COM]: aRC=VBOX_E_OBJECT_IN_USE (0x80bb000c) aIID={4afe423b-43e0-e9d0-82e8-ceb307940dda} aComponent={MediumWrap} aText={Medium '/home/wmb1207/VirtualBox VMs/BDA/extension.vdi' cannot be closed because it is still attached to 1 virtual machines}, preserve=false aResultDetail=0
00:03:21.124419 main     ERROR [COM]: aRC=VBOX_E_OBJECT_IN_USE (0x80bb000c) aIID={4afe423b-43e0-e9d0-82e8-ceb307940dda} aComponent={MediumWrap} aText={Medium '/home/wmb1207/VirtualBox VMs/Void Linux/Void Linux.vdi' cannot be closed because it is still attached to 1 virtual machines}, preserve=false aResultDetail=0
00:03:21.124585 main     ERROR [COM]: aRC=VBOX_E_OBJECT_IN_USE (0x80bb000c) aIID={4afe423b-43e0-e9d0-82e8-ceb307940dda} aComponent={MediumWrap} aText={Medium '/home/wmb1207/VirtualBox VMs/Fedora minimal/Fedora minimal.vdi' cannot be closed because it is still attached to 1 virtual machines}, preserve=false aResultDetail=0
00:03:21.182009 Watcher  ERROR [COM]: aRC=E_ACCESSDENIED (0x80070005) aIID={9570b9d5-f1a1-448a-10c5-e12f5285adad} aComponent={VirtualBoxWrap} aText={The object is not ready}, preserve=false aResultDetail=0
00:03:26.125369 main     {00007f367801ef60} HostPowerServiceLinux::~HostPowerServiceLinux: RTThreadWait() for 5000 ms failed with VERR_TIMEOUT
00:03:26.126060 main     VirtualBox: object deleted
