VirtualBox XPCOM Server 5.2.22_RPMFusion r126257 linux.amd64 (Nov 10 2018 13:50:06) release log
00:00:00.000564 main     Log opened 2019-01-08T04:28:47.704310000Z
00:00:00.000566 main     Build Type: release
00:00:00.000572 main     OS Product: Linux
00:00:00.000573 main     OS Release: 4.19.13-300.fc29.x86_64
00:00:00.000573 main     OS Version: #1 SMP Sat Dec 29 22:54:28 UTC 2018
00:00:00.000613 main     DMI Product Name: X510UQ
00:00:00.000621 main     DMI Product Version: 1.0       
00:00:00.000656 main     Host RAM: 11893MB (11.6GB) total, 9315MB (9.0GB) available
00:00:00.000659 main     Executable: /usr/lib64/virtualbox/VBoxSVC
00:00:00.000660 main     Process ID: 17986
00:00:00.000660 main     Package type: LINUX_64BITS_GENERIC (OSE)
00:00:00.001834 main     IPC socket path: /tmp/.vbox-wmb1207-ipc/ipcd
00:00:00.105776 nspr-2   VirtualBox: object creation starts
00:00:00.106030 nspr-2   Home directory: '/home/wmb1207/.config/VirtualBox'
00:00:00.106679 nspr-2   Loading settings file "/home/wmb1207/.config/VirtualBox/VirtualBox.xml" with version "1.12-linux"
00:00:00.141263 nspr-2   NetIfAdpCtlOut: VBoxNetAdpCtl: Error while retrieving link speed for wlp2s0: VBoxNetAdpCtl: ioctl failed: Operation not supported
00:00:00.156215 nspr-2   NAT: resolv.conf: nameserver 200.42.4.204
00:00:00.156237 nspr-2   NAT: resolv.conf: nameserver 200.49.130.40
00:00:00.156249 nspr-2   HostDnsMonitor: old information
00:00:00.156252 nspr-2     no server entries
00:00:00.156255 nspr-2     no domain set
00:00:00.156258 nspr-2     no search string entries
00:00:00.156261 nspr-2   HostDnsMonitor: new information
00:00:00.156263 nspr-2     server 1: 200.42.4.204
00:00:00.156267 nspr-2     server 2: 200.49.130.40
00:00:00.156269 nspr-2     no domain set
00:00:00.156272 nspr-2     no search string entries
00:00:00.156280 nspr-2   HostDnsMonitorProxy::notify
00:00:00.161111 nspr-2   VD: VDInit finished with VINF_SUCCESS
00:00:00.161191 nspr-2   ERROR [COM]: aRC=NS_ERROR_FAILURE (0x80004005) aIID={0eb668d2-495e-5a36-8890-29999b5f030c} aComponent={SystemPropertiesWrap} aText={Cannot determine default Guest Additions ISO location. Most likely they are not available}, preserve=false aResultDetail=0
00:00:00.174151 nspr-2   Loading settings file "/home/wmb1207/VirtualBox VMs/Fedora/Fedora.vbox" with version "1.16-linux"
00:00:00.174625 nspr-2   Loading settings file "/home/wmb1207/VirtualBox VMs/BDA/BDA.vbox" with version "1.16-linux"
00:00:00.176584 nspr-2   VirtualBox: object created
01:00:55.259219 nspr-2   Saving settings file "/home/wmb1207/.config/VirtualBox/VirtualBox.xml" with version "1.12-linux"
01:00:55.272193 nspr-3   Saving settings file "/home/wmb1207/.config/VirtualBox/VirtualBox.xml" with version "1.12-linux"
01:00:55.283377 nspr-2   Saving settings file "/home/wmb1207/.config/VirtualBox/VirtualBox.xml" with version "1.12-linux"
01:01:00.808035 main     VirtualBox: object deletion starts
01:01:00.808104 main     ERROR [COM]: aRC=VBOX_E_OBJECT_IN_USE (0x80bb000c) aIID={4afe423b-43e0-e9d0-82e8-ceb307940dda} aComponent={MediumWrap} aText={Medium '/home/wmb1207/VirtualBox VMs/Fedora/Fedora.vdi' cannot be closed because it is still attached to 1 virtual machines}, preserve=false aResultDetail=0
01:01:00.808309 main     ERROR [COM]: aRC=VBOX_E_OBJECT_IN_USE (0x80bb000c) aIID={4afe423b-43e0-e9d0-82e8-ceb307940dda} aComponent={MediumWrap} aText={Medium '/home/wmb1207/VirtualBox VMs/srv-bda clonar.vdi' cannot be closed because it is still attached to 1 virtual machines}, preserve=false aResultDetail=0
01:01:00.808337 main     ERROR [COM]: aRC=VBOX_E_OBJECT_IN_USE (0x80bb000c) aIID={4afe423b-43e0-e9d0-82e8-ceb307940dda} aComponent={MediumWrap} aText={Medium '/home/wmb1207/VirtualBox VMs/BDA/extension.vdi' cannot be closed because it is still attached to 1 virtual machines}, preserve=false aResultDetail=0
01:01:01.151166 Watcher  ERROR [COM]: aRC=E_ACCESSDENIED (0x80070005) aIID={9570b9d5-f1a1-448a-10c5-e12f5285adad} aComponent={VirtualBoxWrap} aText={The object is not ready}, preserve=false aResultDetail=0
01:01:05.808868 main     {00007f605c01f0f0} HostPowerServiceLinux::~HostPowerServiceLinux: RTThreadWait() for 5000 ms failed with VERR_TIMEOUT
01:01:05.809919 main     VirtualBox: object deleted
