VirtualBox XPCOM Server 5.2.22_RPMFusion r126257 linux.amd64 (Nov 10 2018 13:50:06) release log
00:00:00.000588 main     Log opened 2019-01-15T15:47:48.718657000Z
00:00:00.000590 main     Build Type: release
00:00:00.000599 main     OS Product: Linux
00:00:00.000600 main     OS Release: 4.19.13-300.fc29.x86_64
00:00:00.000601 main     OS Version: #1 SMP Sat Dec 29 22:54:28 UTC 2018
00:00:00.000630 main     DMI Product Name: X510UQ
00:00:00.000639 main     DMI Product Version: 1.0       
00:00:00.000674 main     Host RAM: 11893MB (11.6GB) total, 9646MB (9.4GB) available
00:00:00.000678 main     Executable: /usr/lib64/virtualbox/VBoxSVC
00:00:00.000678 main     Process ID: 27771
00:00:00.000679 main     Package type: LINUX_64BITS_GENERIC (OSE)
00:00:00.001822 main     IPC socket path: /tmp/.vbox-wmb1207-ipc/ipcd
00:00:00.105093 nspr-2   VirtualBox: object creation starts
00:00:00.105316 nspr-2   Home directory: '/home/wmb1207/.config/VirtualBox'
00:00:00.105742 nspr-2   Loading settings file "/home/wmb1207/.config/VirtualBox/VirtualBox.xml" with version "1.12-linux"
00:00:00.143075 nspr-2   NetIfAdpCtlOut: VBoxNetAdpCtl: Error while retrieving link speed for wlp2s0: VBoxNetAdpCtl: ioctl failed: Operation not supported
00:00:00.156069 nspr-2   NAT: resolv.conf: nameserver 200.42.4.204
00:00:00.156121 nspr-2   NAT: resolv.conf: nameserver 200.49.130.40
00:00:00.156150 nspr-2   HostDnsMonitor: old information
00:00:00.156158 nspr-2     no server entries
00:00:00.156201 nspr-2     no domain set
00:00:00.156210 nspr-2     no search string entries
00:00:00.156216 nspr-2   HostDnsMonitor: new information
00:00:00.156222 nspr-2     server 1: 200.42.4.204
00:00:00.156231 nspr-2     server 2: 200.49.130.40
00:00:00.156240 nspr-2     no domain set
00:00:00.156248 nspr-2     no search string entries
00:00:00.156267 nspr-2   HostDnsMonitorProxy::notify
00:00:00.167533 nspr-2   VD: VDInit finished with VINF_SUCCESS
00:00:00.167759 nspr-2   ERROR [COM]: aRC=NS_ERROR_FAILURE (0x80004005) aIID={0eb668d2-495e-5a36-8890-29999b5f030c} aComponent={SystemPropertiesWrap} aText={Cannot determine default Guest Additions ISO location. Most likely they are not available}, preserve=false aResultDetail=0
00:00:00.194437 nspr-2   Loading settings file "/home/wmb1207/VirtualBox VMs/Fedora/Fedora.vbox" with version "1.16-linux"
00:00:00.195186 nspr-2   Loading settings file "/home/wmb1207/VirtualBox VMs/BDA/BDA.vbox" with version "1.16-linux"
00:00:00.195746 nspr-2   Loading settings file "/home/wmb1207/VirtualBox VMs/Void Linux/Void Linux.vbox" with version "1.16-linux"
00:00:00.199091 nspr-2   VirtualBox: object created
00:02:49.489556 nspr-3   Saving settings file "/home/wmb1207/.config/VirtualBox/VirtualBox.xml" with version "1.12-linux"
00:02:50.043924 nspr-4   ERROR [COM]: aRC=E_ACCESSDENIED (0x80070005) aIID={4afe423b-43e0-e9d0-82e8-ceb307940dda} aComponent={MediumWrap} aText={The object is not ready}, preserve=false aResultDetail=0
00:03:24.609103 nspr-4   Saving settings file "/home/wmb1207/VirtualBox VMs/Void Linux/Void Linux.vbox" with version "1.16-linux"
00:03:24.626574 nspr-2   WARNING [COM]: aRC=NS_ERROR_FAILURE (0x80004005) aIID={afca788c-4477-787d-60b2-3fa70e56fbbc} aComponent={HostWrap} aText={VirtualBox is not currently allowed to access USB devices.  You can change this by adding your user to the 'vboxusers' group.  Please see the user manual for a more detailed explanation}, preserve=true  aResultDetail=0
00:03:24.651307 nspr-2   Saving settings file "/home/wmb1207/VirtualBox VMs/Void Linux/Void Linux.vbox" with version "1.16-linux"
00:03:24.659796 nspr-2   Saving settings file "/home/wmb1207/.config/VirtualBox/VirtualBox.xml" with version "1.12-linux"
00:03:24.681015 nspr-2   Saving settings file "/home/wmb1207/VirtualBox VMs/Void Linux/Void Linux.vbox" with version "1.16-linux"
00:03:24.724986 nspr-4   ERROR [COM]: aRC=NS_ERROR_FAILURE (0x80004005) aIID={85cd948e-a71f-4289-281e-0ca7ad48cd89} aComponent={MachineWrap} aText={This machine does not have any snapshots}, preserve=false aResultDetail=0
00:03:26.612936 nspr-2   WARNING [COM]: aRC=NS_ERROR_FAILURE (0x80004005) aIID={afca788c-4477-787d-60b2-3fa70e56fbbc} aComponent={HostWrap} aText={VirtualBox is not currently allowed to access USB devices.  You can change this by adding your user to the 'vboxusers' group.  Please see the user manual for a more detailed explanation}, preserve=true  aResultDetail=0
00:03:26.778149 nspr-4   NetIfAdpCtlOut: VBoxNetAdpCtl: Error while retrieving link speed for wlp2s0: VBoxNetAdpCtl: ioctl failed: Operation not supported
00:03:26.792196 nspr-4   NetIfAdpCtlOut: VBoxNetAdpCtl: Error while retrieving link speed for wlp2s0: VBoxNetAdpCtl: ioctl failed: Operation not supported
00:03:26.806452 nspr-4   WARNING [COM]: aRC=NS_ERROR_FAILURE (0x80004005) aIID={afca788c-4477-787d-60b2-3fa70e56fbbc} aComponent={HostWrap} aText={VirtualBox is not currently allowed to access USB devices.  You can change this by adding your user to the 'vboxusers' group.  Please see the user manual for a more detailed explanation}, preserve=true  aResultDetail=0
00:03:26.806797 nspr-3   WARNING [COM]: aRC=NS_ERROR_FAILURE (0x80004005) aIID={afca788c-4477-787d-60b2-3fa70e56fbbc} aComponent={HostWrap} aText={VirtualBox is not currently allowed to access USB devices.  You can change this by adding your user to the 'vboxusers' group.  Please see the user manual for a more detailed explanation}, preserve=true  aResultDetail=0
00:03:43.224708 nspr-3   WARNING [COM]: aRC=NS_ERROR_FAILURE (0x80004005) aIID={afca788c-4477-787d-60b2-3fa70e56fbbc} aComponent={HostWrap} aText={VirtualBox is not currently allowed to access USB devices.  You can change this by adding your user to the 'vboxusers' group.  Please see the user manual for a more detailed explanation}, preserve=true  aResultDetail=0
00:03:43.225140 nspr-4   Saving settings file "/home/wmb1207/VirtualBox VMs/Void Linux/Void Linux.vbox" with version "1.16-linux"
00:03:45.513182 nspr-5   WARNING [COM]: aRC=NS_ERROR_FAILURE (0x80004005) aIID={afca788c-4477-787d-60b2-3fa70e56fbbc} aComponent={HostWrap} aText={VirtualBox is not currently allowed to access USB devices.  You can change this by adding your user to the 'vboxusers' group.  Please see the user manual for a more detailed explanation}, preserve=true  aResultDetail=0
00:03:45.513764 nspr-6   WARNING [COM]: aRC=NS_ERROR_FAILURE (0x80004005) aIID={afca788c-4477-787d-60b2-3fa70e56fbbc} aComponent={HostWrap} aText={VirtualBox is not currently allowed to access USB devices.  You can change this by adding your user to the 'vboxusers' group.  Please see the user manual for a more detailed explanation}, preserve=true  aResultDetail=0
00:03:45.514282 nspr-5   Load [/usr/lib64/virtualbox/ExtensionPacks/Oracle_VM_VirtualBox_Extension_Pack/linux.amd64/VBoxHostWebcam.so] rc VINF_SUCCESS
00:03:45.614510 nspr-6   WARNING [COM]: aRC=NS_ERROR_FAILURE (0x80004005) aIID={afca788c-4477-787d-60b2-3fa70e56fbbc} aComponent={HostWrap} aText={VirtualBox is not currently allowed to access USB devices.  You can change this by adding your user to the 'vboxusers' group.  Please see the user manual for a more detailed explanation}, preserve=true  aResultDetail=0
00:03:45.733407 nspr-6   WARNING [COM]: aRC=NS_ERROR_FAILURE (0x80004005) aIID={afca788c-4477-787d-60b2-3fa70e56fbbc} aComponent={HostWrap} aText={VirtualBox is not currently allowed to access USB devices.  You can change this by adding your user to the 'vboxusers' group.  Please see the user manual for a more detailed explanation}, preserve=true  aResultDetail=0
00:03:45.738296 nspr-3   WARNING [COM]: aRC=NS_ERROR_FAILURE (0x80004005) aIID={afca788c-4477-787d-60b2-3fa70e56fbbc} aComponent={HostWrap} aText={VirtualBox is not currently allowed to access USB devices.  You can change this by adding your user to the 'vboxusers' group.  Please see the user manual for a more detailed explanation}, preserve=true  aResultDetail=0
00:03:45.857605 nspr-6   ERROR [COM]: aRC=VBOX_E_IPRT_ERROR (0x80bb0005) aIID={85cd948e-a71f-4289-281e-0ca7ad48cd89} aComponent={SessionMachine} aText={Saved screenshot data is not available (VERR_NOT_SUPPORTED)}, preserve=false aResultDetail=0
00:03:45.879364 nspr-6   NetIfAdpCtlOut: VBoxNetAdpCtl: Error while retrieving link speed for wlp2s0: VBoxNetAdpCtl: ioctl failed: Operation not supported
00:04:05.575019 nspr-6   Saving settings file "/home/wmb1207/.config/VirtualBox/VirtualBox.xml" with version "1.12-linux"
00:04:05.600398 nspr-6   Saving settings file "/home/wmb1207/.config/VirtualBox/VirtualBox.xml" with version "1.12-linux"
00:04:06.422721 nspr-3   Saving settings file "/home/wmb1207/VirtualBox VMs/Void Linux/Void Linux.vbox" with version "1.16-linux"
00:04:06.534826 nspr-5   WARNING [COM]: aRC=NS_ERROR_FAILURE (0x80004005) aIID={afca788c-4477-787d-60b2-3fa70e56fbbc} aComponent={HostWrap} aText={VirtualBox is not currently allowed to access USB devices.  You can change this by adding your user to the 'vboxusers' group.  Please see the user manual for a more detailed explanation}, preserve=true  aResultDetail=0
00:04:06.551998 nspr-5   NetIfAdpCtlOut: VBoxNetAdpCtl: Error while retrieving link speed for wlp2s0: VBoxNetAdpCtl: ioctl failed: Operation not supported
00:21:09.798351 main     Saving settings file "/home/wmb1207/VirtualBox VMs/Void Linux/Void Linux.vbox" with version "1.16-linux"
00:21:10.162267 Watcher  Reaper: Pid 27896 (6cf8) exited normally: 1 (0x1)
00:21:13.838396 nspr-5   WARNING [COM]: aRC=NS_ERROR_FAILURE (0x80004005) aIID={afca788c-4477-787d-60b2-3fa70e56fbbc} aComponent={HostWrap} aText={VirtualBox is not currently allowed to access USB devices.  You can change this by adding your user to the 'vboxusers' group.  Please see the user manual for a more detailed explanation}, preserve=true  aResultDetail=0
00:21:13.838946 nspr-8   WARNING [COM]: aRC=NS_ERROR_FAILURE (0x80004005) aIID={afca788c-4477-787d-60b2-3fa70e56fbbc} aComponent={HostWrap} aText={VirtualBox is not currently allowed to access USB devices.  You can change this by adding your user to the 'vboxusers' group.  Please see the user manual for a more detailed explanation}, preserve=true  aResultDetail=0
00:21:13.839449 nspr-8   Load [/usr/lib64/virtualbox/ExtensionPacks/Oracle_VM_VirtualBox_Extension_Pack/linux.amd64/VBoxHostWebcam.so] rc VINF_SUCCESS
00:21:13.938711 nspr-7   WARNING [COM]: aRC=NS_ERROR_FAILURE (0x80004005) aIID={afca788c-4477-787d-60b2-3fa70e56fbbc} aComponent={HostWrap} aText={VirtualBox is not currently allowed to access USB devices.  You can change this by adding your user to the 'vboxusers' group.  Please see the user manual for a more detailed explanation}, preserve=true  aResultDetail=0
00:21:14.079051 nspr-4   WARNING [COM]: aRC=NS_ERROR_FAILURE (0x80004005) aIID={afca788c-4477-787d-60b2-3fa70e56fbbc} aComponent={HostWrap} aText={VirtualBox is not currently allowed to access USB devices.  You can change this by adding your user to the 'vboxusers' group.  Please see the user manual for a more detailed explanation}, preserve=true  aResultDetail=0
00:21:14.082352 nspr-3   WARNING [COM]: aRC=NS_ERROR_FAILURE (0x80004005) aIID={afca788c-4477-787d-60b2-3fa70e56fbbc} aComponent={HostWrap} aText={VirtualBox is not currently allowed to access USB devices.  You can change this by adding your user to the 'vboxusers' group.  Please see the user manual for a more detailed explanation}, preserve=true  aResultDetail=0
00:21:14.210180 nspr-4   ERROR [COM]: aRC=VBOX_E_IPRT_ERROR (0x80bb0005) aIID={85cd948e-a71f-4289-281e-0ca7ad48cd89} aComponent={SessionMachine} aText={Saved screenshot data is not available (VERR_NOT_SUPPORTED)}, preserve=false aResultDetail=0
00:21:14.231586 nspr-2   NetIfAdpCtlOut: VBoxNetAdpCtl: Error while retrieving link speed for wlp2s0: VBoxNetAdpCtl: ioctl failed: Operation not supported
00:21:16.441841 nspr-2   Saving settings file "/home/wmb1207/VirtualBox VMs/Void Linux/Void Linux.vbox" with version "1.16-linux"
00:21:16.539763 nspr-4   WARNING [COM]: aRC=NS_ERROR_FAILURE (0x80004005) aIID={afca788c-4477-787d-60b2-3fa70e56fbbc} aComponent={HostWrap} aText={VirtualBox is not currently allowed to access USB devices.  You can change this by adding your user to the 'vboxusers' group.  Please see the user manual for a more detailed explanation}, preserve=true  aResultDetail=0
00:21:16.558337 nspr-2   NetIfAdpCtlOut: VBoxNetAdpCtl: Error while retrieving link speed for wlp2s0: VBoxNetAdpCtl: ioctl failed: Operation not supported
00:48:17.767257 main     Saving settings file "/home/wmb1207/VirtualBox VMs/Void Linux/Void Linux.vbox" with version "1.16-linux"
00:48:18.261947 Watcher  Reaper: Pid 28292 (6e84) exited normally: 1 (0x1)
00:48:24.117990 main     VirtualBox: object deletion starts
00:48:24.118113 main     ERROR [COM]: aRC=VBOX_E_OBJECT_IN_USE (0x80bb000c) aIID={4afe423b-43e0-e9d0-82e8-ceb307940dda} aComponent={MediumWrap} aText={Medium '/home/wmb1207/VirtualBox VMs/Fedora/Fedora.vdi' cannot be closed because it is still attached to 1 virtual machines}, preserve=false aResultDetail=0
00:48:24.118595 main     ERROR [COM]: aRC=VBOX_E_OBJECT_IN_USE (0x80bb000c) aIID={4afe423b-43e0-e9d0-82e8-ceb307940dda} aComponent={MediumWrap} aText={Medium '/home/wmb1207/VirtualBox VMs/srv-bda clonar.vdi' cannot be closed because it is still attached to 1 virtual machines}, preserve=false aResultDetail=0
00:48:24.118655 main     ERROR [COM]: aRC=VBOX_E_OBJECT_IN_USE (0x80bb000c) aIID={4afe423b-43e0-e9d0-82e8-ceb307940dda} aComponent={MediumWrap} aText={Medium '/home/wmb1207/VirtualBox VMs/BDA/extension.vdi' cannot be closed because it is still attached to 1 virtual machines}, preserve=false aResultDetail=0
00:48:24.118950 main     ERROR [COM]: aRC=VBOX_E_OBJECT_IN_USE (0x80bb000c) aIID={4afe423b-43e0-e9d0-82e8-ceb307940dda} aComponent={MediumWrap} aText={Medium '/home/wmb1207/VirtualBox VMs/Void Linux/Void Linux.vdi' cannot be closed because it is still attached to 1 virtual machines}, preserve=false aResultDetail=0
00:48:24.263530 Watcher  ERROR [COM]: aRC=E_ACCESSDENIED (0x80070005) aIID={9570b9d5-f1a1-448a-10c5-e12f5285adad} aComponent={VirtualBoxWrap} aText={The object is not ready}, preserve=false aResultDetail=0
00:48:29.120428 main     {00007fd3c001ef60} HostPowerServiceLinux::~HostPowerServiceLinux: RTThreadWait() for 5000 ms failed with VERR_TIMEOUT
00:48:29.124540 main     VirtualBox: object deleted
