00:00:00.000270 main     VirtualBox XPCOM Server 6.0.4_RPMFusion r128164 linux.amd64 (Mar  5 2019 03:03:07) release log
00:00:00.000272 main     Log opened 2019-05-17T19:38:08.771432000Z
00:00:00.000273 main     Build Type: release
00:00:00.000276 main     OS Product: Linux
00:00:00.000277 main     OS Release: 5.0.9-301.fc30.x86_64
00:00:00.000277 main     OS Version: #1 SMP Tue Apr 23 23:57:35 UTC 2019
00:00:00.000317 main     DMI Product Name: X510UQ
00:00:00.000327 main     DMI Product Version: 1.0       
00:00:00.000360 main     Host RAM: 11893MB (11.6GB) total, 6480MB (6.3GB) available
00:00:00.000364 main     Executable: /usr/lib64/virtualbox/VBoxSVC
00:00:00.000364 main     Process ID: 24576
00:00:00.000364 main     Package type: LINUX_64BITS_GENERIC (OSE)
00:00:00.001558 main     IPC socket path: /tmp/.vbox-wmb1207-ipc/ipcd
00:00:00.104507 nspr-2   VirtualBox: object creation starts
00:00:00.104592 nspr-2   Home directory: '/home/wmb1207/.config/VirtualBox'
00:00:00.105677 nspr-2   Loading settings file "/home/wmb1207/.config/VirtualBox/VirtualBox.xml" with version "1.12-linux"
00:00:00.123838 nspr-2   NetIfAdpCtlOut: VBoxNetAdpCtl: Error while retrieving link speed for wlp2s0: VBoxNetAdpCtl: ioctl failed: Operation not supported
00:00:00.129923 nspr-2   NAT: resolv.conf: nameserver 192.168.0.1
00:00:00.129954 nspr-2   HostDnsMonitor::updateInfo
00:00:00.129979 nspr-2   HostDnsMonitor: old information
00:00:00.129983 nspr-2     no server entries
00:00:00.129986 nspr-2     no domain set
00:00:00.129989 nspr-2     no search string entries
00:00:00.129993 nspr-2   HostDnsMonitor: new information
00:00:00.129995 nspr-2     server 1: 192.168.0.1
00:00:00.129999 nspr-2     no domain set
00:00:00.130002 nspr-2     no search string entries
00:00:00.133941 nspr-2   Failed to open "/dev/vboxdrvu", errno=2, rc=VERR_VM_DRIVER_NOT_INSTALLED
00:00:00.134268 nspr-2   VD: VDInit finished with VINF_SUCCESS
00:00:00.134413 nspr-2   ERROR [COM]: aRC=NS_ERROR_FAILURE (0x80004005) aIID={d55176e5-6730-4e9e-fc1f-a59b1f44f78f} aComponent={SystemPropertiesWrap} aText={Cannot determine default Guest Additions ISO location. Most likely they are not available}, preserve=false aResultDetail=0
00:00:00.156084 nspr-2   ERROR [COM]: aRC=NS_ERROR_FAILURE (0x80004005) aIID={5047460a-265d-4538-b23e-ddba5fb84976} aComponent={MachineWrap} aText={Runtime error opening '/home/wmb1207/VirtualBox VMs/Fedora/Fedora.vbox' for reading: -102 (File not found.).
00:00:00.156093 nspr-2   /builddir/build/BUILD/VirtualBox-6.0.4/src/VBox/Main/src-server/MachineImpl.cpp[750] (nsresult Machine::i_registeredInit())}, preserve=false aResultDetail=0
00:00:00.156414 nspr-2   ERROR [COM]: aRC=NS_ERROR_FAILURE (0x80004005) aIID={5047460a-265d-4538-b23e-ddba5fb84976} aComponent={MachineWrap} aText={Runtime error opening '/home/wmb1207/VirtualBox VMs/BDA/BDA.vbox' for reading: -102 (File not found.).
00:00:00.156422 nspr-2   /builddir/build/BUILD/VirtualBox-6.0.4/src/VBox/Main/src-server/MachineImpl.cpp[750] (nsresult Machine::i_registeredInit())}, preserve=false aResultDetail=0
00:00:00.156699 nspr-2   ERROR [COM]: aRC=NS_ERROR_FAILURE (0x80004005) aIID={5047460a-265d-4538-b23e-ddba5fb84976} aComponent={MachineWrap} aText={Runtime error opening '/home/wmb1207/VirtualBox VMs/Void Linux/Void Linux.vbox' for reading: -102 (File not found.).
00:00:00.156705 nspr-2   /builddir/build/BUILD/VirtualBox-6.0.4/src/VBox/Main/src-server/MachineImpl.cpp[750] (nsresult Machine::i_registeredInit())}, preserve=false aResultDetail=0
00:00:00.156965 nspr-2   ERROR [COM]: aRC=NS_ERROR_FAILURE (0x80004005) aIID={5047460a-265d-4538-b23e-ddba5fb84976} aComponent={MachineWrap} aText={Runtime error opening '/home/wmb1207/VirtualBox VMs/Fedora minimal/Fedora minimal.vbox' for reading: -102 (File not found.).
00:00:00.156973 nspr-2   /builddir/build/BUILD/VirtualBox-6.0.4/src/VBox/Main/src-server/MachineImpl.cpp[750] (nsresult Machine::i_registeredInit())}, preserve=false aResultDetail=0
00:00:00.157330 nspr-2   VirtualBox: object created
00:00:00.456387 nspr-3   ERROR [COM]: aRC=NS_ERROR_FAILURE (0x80004005) aIID={5047460a-265d-4538-b23e-ddba5fb84976} aComponent={MachineWrap} aText={Runtime error opening '/home/wmb1207/VirtualBox VMs/Fedora/Fedora.vbox' for reading: -102 (File not found.).
00:00:00.456394 nspr-3   /builddir/build/BUILD/VirtualBox-6.0.4/src/VBox/Main/src-server/MachineImpl.cpp[750] (nsresult Machine::i_registeredInit())}, preserve=false aResultDetail=0
00:00:00.457119 nspr-3   ERROR [COM]: aRC=NS_ERROR_FAILURE (0x80004005) aIID={5047460a-265d-4538-b23e-ddba5fb84976} aComponent={MachineWrap} aText={Runtime error opening '/home/wmb1207/VirtualBox VMs/Fedora/Fedora.vbox' for reading: -102 (File not found.).
00:00:00.457124 nspr-3   /builddir/build/BUILD/VirtualBox-6.0.4/src/VBox/Main/src-server/MachineImpl.cpp[750] (nsresult Machine::i_registeredInit())}, preserve=false aResultDetail=0
00:00:00.458677 nspr-3   ERROR [COM]: aRC=NS_ERROR_FAILURE (0x80004005) aIID={5047460a-265d-4538-b23e-ddba5fb84976} aComponent={MachineWrap} aText={Runtime error opening '/home/wmb1207/VirtualBox VMs/Fedora/Fedora.vbox' for reading: -102 (File not found.).
00:00:00.458683 nspr-3   /builddir/build/BUILD/VirtualBox-6.0.4/src/VBox/Main/src-server/MachineImpl.cpp[750] (nsresult Machine::i_registeredInit())}, preserve=false aResultDetail=0
00:00:00.461168 nspr-3   ERROR [COM]: aRC=NS_ERROR_FAILURE (0x80004005) aIID={5047460a-265d-4538-b23e-ddba5fb84976} aComponent={MachineWrap} aText={Runtime error opening '/home/wmb1207/VirtualBox VMs/BDA/BDA.vbox' for reading: -102 (File not found.).
00:00:00.461174 nspr-3   /builddir/build/BUILD/VirtualBox-6.0.4/src/VBox/Main/src-server/MachineImpl.cpp[750] (nsresult Machine::i_registeredInit())}, preserve=false aResultDetail=0
00:00:00.461558 nspr-3   ERROR [COM]: aRC=NS_ERROR_FAILURE (0x80004005) aIID={5047460a-265d-4538-b23e-ddba5fb84976} aComponent={MachineWrap} aText={Runtime error opening '/home/wmb1207/VirtualBox VMs/BDA/BDA.vbox' for reading: -102 (File not found.).
00:00:00.461562 nspr-3   /builddir/build/BUILD/VirtualBox-6.0.4/src/VBox/Main/src-server/MachineImpl.cpp[750] (nsresult Machine::i_registeredInit())}, preserve=false aResultDetail=0
00:00:00.462370 nspr-3   ERROR [COM]: aRC=NS_ERROR_FAILURE (0x80004005) aIID={5047460a-265d-4538-b23e-ddba5fb84976} aComponent={MachineWrap} aText={Runtime error opening '/home/wmb1207/VirtualBox VMs/BDA/BDA.vbox' for reading: -102 (File not found.).
00:00:00.462376 nspr-3   /builddir/build/BUILD/VirtualBox-6.0.4/src/VBox/Main/src-server/MachineImpl.cpp[750] (nsresult Machine::i_registeredInit())}, preserve=false aResultDetail=0
00:00:00.463692 nspr-3   ERROR [COM]: aRC=NS_ERROR_FAILURE (0x80004005) aIID={5047460a-265d-4538-b23e-ddba5fb84976} aComponent={MachineWrap} aText={Runtime error opening '/home/wmb1207/VirtualBox VMs/Void Linux/Void Linux.vbox' for reading: -102 (File not found.).
00:00:00.463697 nspr-3   /builddir/build/BUILD/VirtualBox-6.0.4/src/VBox/Main/src-server/MachineImpl.cpp[750] (nsresult Machine::i_registeredInit())}, preserve=false aResultDetail=0
00:00:00.464017 nspr-3   ERROR [COM]: aRC=NS_ERROR_FAILURE (0x80004005) aIID={5047460a-265d-4538-b23e-ddba5fb84976} aComponent={MachineWrap} aText={Runtime error opening '/home/wmb1207/VirtualBox VMs/Void Linux/Void Linux.vbox' for reading: -102 (File not found.).
00:00:00.464022 nspr-3   /builddir/build/BUILD/VirtualBox-6.0.4/src/VBox/Main/src-server/MachineImpl.cpp[750] (nsresult Machine::i_registeredInit())}, preserve=false aResultDetail=0
00:00:00.464818 nspr-3   ERROR [COM]: aRC=NS_ERROR_FAILURE (0x80004005) aIID={5047460a-265d-4538-b23e-ddba5fb84976} aComponent={MachineWrap} aText={Runtime error opening '/home/wmb1207/VirtualBox VMs/Void Linux/Void Linux.vbox' for reading: -102 (File not found.).
00:00:00.464823 nspr-3   /builddir/build/BUILD/VirtualBox-6.0.4/src/VBox/Main/src-server/MachineImpl.cpp[750] (nsresult Machine::i_registeredInit())}, preserve=false aResultDetail=0
00:00:00.466020 nspr-3   ERROR [COM]: aRC=NS_ERROR_FAILURE (0x80004005) aIID={5047460a-265d-4538-b23e-ddba5fb84976} aComponent={MachineWrap} aText={Runtime error opening '/home/wmb1207/VirtualBox VMs/Fedora minimal/Fedora minimal.vbox' for reading: -102 (File not found.).
00:00:00.466025 nspr-3   /builddir/build/BUILD/VirtualBox-6.0.4/src/VBox/Main/src-server/MachineImpl.cpp[750] (nsresult Machine::i_registeredInit())}, preserve=false aResultDetail=0
00:00:00.466361 nspr-3   ERROR [COM]: aRC=NS_ERROR_FAILURE (0x80004005) aIID={5047460a-265d-4538-b23e-ddba5fb84976} aComponent={MachineWrap} aText={Runtime error opening '/home/wmb1207/VirtualBox VMs/Fedora minimal/Fedora minimal.vbox' for reading: -102 (File not found.).
00:00:00.466365 nspr-3   /builddir/build/BUILD/VirtualBox-6.0.4/src/VBox/Main/src-server/MachineImpl.cpp[750] (nsresult Machine::i_registeredInit())}, preserve=false aResultDetail=0
00:00:00.467133 nspr-3   ERROR [COM]: aRC=NS_ERROR_FAILURE (0x80004005) aIID={5047460a-265d-4538-b23e-ddba5fb84976} aComponent={MachineWrap} aText={Runtime error opening '/home/wmb1207/VirtualBox VMs/Fedora minimal/Fedora minimal.vbox' for reading: -102 (File not found.).
00:00:00.467136 nspr-3   /builddir/build/BUILD/VirtualBox-6.0.4/src/VBox/Main/src-server/MachineImpl.cpp[750] (nsresult Machine::i_registeredInit())}, preserve=false aResultDetail=0
00:00:00.468090 nspr-3   ERROR [COM]: aRC=E_ACCESSDENIED (0x80070005) aIID={5047460a-265d-4538-b23e-ddba5fb84976} aComponent={MachineWrap} aText={The object functionality is limited}, preserve=false aResultDetail=0
00:00:00.468114 nspr-3   ERROR [COM]: aRC=E_ACCESSDENIED (0x80070005) aIID={5047460a-265d-4538-b23e-ddba5fb84976} aComponent={MachineWrap} aText={The object functionality is limited}, preserve=false aResultDetail=0
00:00:00.468123 nspr-3   ERROR [COM]: aRC=E_ACCESSDENIED (0x80070005) aIID={5047460a-265d-4538-b23e-ddba5fb84976} aComponent={MachineWrap} aText={The object functionality is limited}, preserve=false aResultDetail=0
00:00:00.468130 nspr-3   ERROR [COM]: aRC=E_ACCESSDENIED (0x80070005) aIID={5047460a-265d-4538-b23e-ddba5fb84976} aComponent={MachineWrap} aText={The object functionality is limited}, preserve=false aResultDetail=0
00:00:00.468138 nspr-3   ERROR [COM]: aRC=VBOX_E_OBJECT_NOT_FOUND (0x80bb0001) aIID={d0a0163f-e254-4e5b-a1f2-011cf991c38d} aComponent={VirtualBoxWrap} aText={Could not find a registered machine named 'BDA'}, preserve=false aResultDetail=0
00:00:01.604337 nspr-3   Saving settings file "/home/wmb1207/.config/VirtualBox/VirtualBox.xml" with version "1.12-linux"
00:00:01.611988 nspr-2   Saving settings file "/home/wmb1207/.config/VirtualBox/VirtualBox.xml" with version "1.12-linux"
00:00:01.620061 nspr-3   Saving settings file "/home/wmb1207/.config/VirtualBox/VirtualBox.xml" with version "1.12-linux"
00:00:01.637741 nspr-2   Saving settings file "/home/wmb1207/.config/VirtualBox/VirtualBox.xml" with version "1.12-linux"
00:00:01.653635 nspr-3   Saving settings file "/home/wmb1207/.config/VirtualBox/VirtualBox.xml" with version "1.12-linux"
00:00:01.660801 nspr-3   Saving settings file "/home/wmb1207/.config/VirtualBox/VirtualBox.xml" with version "1.12-linux"
00:00:01.669489 nspr-3   Saving settings file "/home/wmb1207/.config/VirtualBox/VirtualBox.xml" with version "1.12-linux"
00:00:01.677868 nspr-3   Saving settings file "/home/wmb1207/.config/VirtualBox/VirtualBox.xml" with version "1.12-linux"
00:00:07.219249 main     VirtualBox: object deletion starts
00:00:07.659127 Watcher  ERROR [COM]: aRC=E_ACCESSDENIED (0x80070005) aIID={d0a0163f-e254-4e5b-a1f2-011cf991c38d} aComponent={VirtualBoxWrap} aText={The object is not ready}, preserve=false aResultDetail=0
00:00:12.220782 main     {00007fac28024610} HostPowerServiceLinux::~HostPowerServiceLinux: RTThreadWait() for 5000 ms failed with VERR_TIMEOUT
00:00:12.221352 main     VirtualBox: object deleted
