VirtualBox XPCOM Server 5.2.24_RPMFusion r128122 linux.amd64 (Jan 17 2019 14:27:55) release log
00:00:00.003579 main     Log opened 2019-02-13T20:44:31.590519000Z
00:00:00.003581 main     Build Type: release
00:00:00.003590 main     OS Product: Linux
00:00:00.003590 main     OS Release: 4.20.7-200.fc29.x86_64
00:00:00.003591 main     OS Version: #1 SMP Wed Feb 6 19:16:42 UTC 2019
00:00:00.003627 main     DMI Product Name: X510UQ
00:00:00.003637 main     DMI Product Version: 1.0       
00:00:00.003674 main     Host RAM: 11892MB (11.6GB) total, 10122MB (9.8GB) available
00:00:00.003678 main     Executable: /usr/lib64/virtualbox/VBoxSVC
00:00:00.003679 main     Process ID: 24841
00:00:00.003679 main     Package type: LINUX_64BITS_GENERIC (OSE)
00:00:00.005140 main     IPC socket path: /tmp/.vbox-wmb1207-ipc/ipcd
00:00:00.111515 nspr-2   VirtualBox: object creation starts
00:00:00.113272 nspr-2   Home directory: '/home/wmb1207/.config/VirtualBox'
00:00:00.113991 nspr-2   Loading settings file "/home/wmb1207/.config/VirtualBox/VirtualBox.xml" with version "1.12-linux"
00:00:00.133434 nspr-2   NetIfAdpCtlOut: VBoxNetAdpCtl: Error while retrieving link speed for wlp2s0: VBoxNetAdpCtl: ioctl failed: Operation not supported
00:00:00.138652 nspr-2   NAT: resolv.conf: nameserver 200.42.4.204
00:00:00.138671 nspr-2   NAT: resolv.conf: nameserver 200.49.130.40
00:00:00.138680 nspr-2   HostDnsMonitor: old information
00:00:00.138682 nspr-2     no server entries
00:00:00.138684 nspr-2     no domain set
00:00:00.138685 nspr-2     no search string entries
00:00:00.138687 nspr-2   HostDnsMonitor: new information
00:00:00.138688 nspr-2     server 1: 200.42.4.204
00:00:00.138690 nspr-2     server 2: 200.49.130.40
00:00:00.138692 nspr-2     no domain set
00:00:00.138693 nspr-2     no search string entries
00:00:00.138978 nspr-2   HostDnsMonitorProxy::notify
00:00:00.149702 nspr-2   VD: VDInit finished with VINF_SUCCESS
00:00:00.150499 nspr-2   ERROR [COM]: aRC=NS_ERROR_FAILURE (0x80004005) aIID={0eb668d2-495e-5a36-8890-29999b5f030c} aComponent={SystemPropertiesWrap} aText={Cannot determine default Guest Additions ISO location. Most likely they are not available}, preserve=false aResultDetail=0
00:00:00.219877 nspr-2   Loading settings file "/home/wmb1207/VirtualBox VMs/Fedora/Fedora.vbox" with version "1.16-linux"
00:00:00.224944 nspr-2   Loading settings file "/home/wmb1207/VirtualBox VMs/BDA/BDA.vbox" with version "1.16-linux"
00:00:00.227582 nspr-2   Loading settings file "/home/wmb1207/VirtualBox VMs/Void Linux/Void Linux.vbox" with version "1.16-linux"
00:00:00.233175 nspr-2   Loading settings file "/home/wmb1207/VirtualBox VMs/Fedora minimal/Fedora minimal.vbox" with version "1.16-linux"
00:00:00.244315 nspr-2   VirtualBox: object created
00:00:08.402062 nspr-4   Saving settings file "/home/wmb1207/.config/VirtualBox/VirtualBox.xml" with version "1.12-linux"
00:00:11.790169 nspr-5   Saving settings file "/home/wmb1207/.config/VirtualBox/VirtualBox.xml" with version "1.12-linux"
00:00:13.209080 nspr-5   Saving settings file "/home/wmb1207/.config/VirtualBox/VirtualBox.xml" with version "1.12-linux"
00:00:13.224918 nspr-4   Saving settings file "/home/wmb1207/.config/VirtualBox/VirtualBox.xml" with version "1.12-linux"
00:00:13.236947 nspr-3   Saving settings file "/home/wmb1207/.config/VirtualBox/VirtualBox.xml" with version "1.12-linux"
00:00:18.759706 main     VirtualBox: object deletion starts
00:00:18.759760 main     ERROR [COM]: aRC=VBOX_E_OBJECT_IN_USE (0x80bb000c) aIID={4afe423b-43e0-e9d0-82e8-ceb307940dda} aComponent={MediumWrap} aText={Medium '/home/wmb1207/VirtualBox VMs/Fedora/Fedora.vdi' cannot be closed because it is still attached to 1 virtual machines}, preserve=false aResultDetail=0
00:00:18.759996 main     ERROR [COM]: aRC=VBOX_E_OBJECT_IN_USE (0x80bb000c) aIID={4afe423b-43e0-e9d0-82e8-ceb307940dda} aComponent={MediumWrap} aText={Medium '/home/wmb1207/VirtualBox VMs/srv-bda clonar.vdi' cannot be closed because it is still attached to 1 virtual machines}, preserve=false aResultDetail=0
00:00:18.760103 main     ERROR [COM]: aRC=VBOX_E_OBJECT_IN_USE (0x80bb000c) aIID={4afe423b-43e0-e9d0-82e8-ceb307940dda} aComponent={MediumWrap} aText={Medium '/home/wmb1207/VirtualBox VMs/BDA/extension.vdi' cannot be closed because it is still attached to 1 virtual machines}, preserve=false aResultDetail=0
00:00:18.760398 main     ERROR [COM]: aRC=VBOX_E_OBJECT_IN_USE (0x80bb000c) aIID={4afe423b-43e0-e9d0-82e8-ceb307940dda} aComponent={MediumWrap} aText={Medium '/home/wmb1207/VirtualBox VMs/Void Linux/Void Linux.vdi' cannot be closed because it is still attached to 1 virtual machines}, preserve=false aResultDetail=0
00:00:18.760677 main     ERROR [COM]: aRC=VBOX_E_OBJECT_IN_USE (0x80bb000c) aIID={4afe423b-43e0-e9d0-82e8-ceb307940dda} aComponent={MediumWrap} aText={Medium '/home/wmb1207/VirtualBox VMs/Fedora minimal/Fedora minimal.vdi' cannot be closed because it is still attached to 1 virtual machines}, preserve=false aResultDetail=0
00:00:19.248740 Watcher  ERROR [COM]: aRC=E_ACCESSDENIED (0x80070005) aIID={9570b9d5-f1a1-448a-10c5-e12f5285adad} aComponent={VirtualBoxWrap} aText={The object is not ready}, preserve=false aResultDetail=0
00:00:23.761671 main     {00007f8a90016c40} HostPowerServiceLinux::~HostPowerServiceLinux: RTThreadWait() for 5000 ms failed with VERR_TIMEOUT
00:00:23.762147 main     VirtualBox: object deleted
