{
    "telemetry.machineId": "26f7a6c72c5608b27bf3f46beea19aab3db7e8e505786ed1a8456cc149bf6160",
    "lastKnownKeybindings": {
        "workbench.action.files.newUntitledFile": {
            "id": "workbench.action.files.newUntitledFile",
            "label": "Ctrl+N",
            "isNative": true
        },
        "workbench.action.reopenClosedEditor": {
            "id": "workbench.action.reopenClosedEditor",
            "label": "Ctrl+Shift+T",
            "isNative": true
        },
        "workbench.action.openRecent": {
            "id": "workbench.action.openRecent",
            "label": "Ctrl+R",
            "isNative": true
        },
        "workbench.action.files.save": {
            "id": "workbench.action.files.save",
            "label": "Ctrl+S",
            "isNative": true
        },
        "workbench.action.files.saveAs": {
            "id": "workbench.action.files.saveAs",
            "label": "Ctrl+Shift+S",
            "isNative": true
        },
        "workbench.action.openGlobalSettings": {
            "id": "workbench.action.openGlobalSettings",
            "label": "Ctrl+,",
            "isNative": true
        },
        "workbench.action.openGlobalKeybindings": {
            "id": "workbench.action.openGlobalKeybindings",
            "label": "Ctrl+K Ctrl+S",
            "isNative": false
        },
        "workbench.action.selectTheme": {
            "id": "workbench.action.selectTheme",
            "label": "Ctrl+K Ctrl+T",
            "isNative": false
        },
        "workbench.action.newWindow": {
            "id": "workbench.action.newWindow",
            "label": "Ctrl+Shift+N",
            "isNative": true
        },
        "workbench.action.closeWindow": {
            "id": "workbench.action.closeWindow",
            "label": "Ctrl+W",
            "isNative": true
        },
        "workbench.action.closeFolder": {
            "id": "workbench.action.closeFolder",
            "label": "Ctrl+K F",
            "isNative": false
        },
        "workbench.action.closeActiveEditor": {
            "id": "workbench.action.closeActiveEditor",
            "label": "Ctrl+W",
            "isNative": true
        },
        "workbench.action.quit": {
            "id": "workbench.action.quit",
            "label": "Ctrl+Q",
            "isNative": true
        },
        "undo": {
            "id": "undo",
            "label": "Ctrl+Z",
            "isNative": true
        },
        "redo": {
            "id": "redo",
            "label": "Ctrl+Y",
            "isNative": true
        },
        "editor.action.clipboardCutAction": {
            "id": "editor.action.clipboardCutAction",
            "label": "Ctrl+X",
            "isNative": true
        },
        "editor.action.clipboardCopyAction": {
            "id": "editor.action.clipboardCopyAction",
            "label": "Ctrl+C",
            "isNative": true
        },
        "editor.action.clipboardPasteAction": {
            "id": "editor.action.clipboardPasteAction",
            "label": "Ctrl+V",
            "isNative": true
        },
        "actions.find": {
            "id": "actions.find",
            "label": "Ctrl+F",
            "isNative": true
        },
        "editor.action.startFindReplaceAction": {
            "id": "editor.action.startFindReplaceAction",
            "label": "Ctrl+H",
            "isNative": true
        },
        "workbench.action.findInFiles": {
            "id": "workbench.action.findInFiles",
            "label": "Ctrl+Shift+F",
            "isNative": true
        },
        "workbench.action.replaceInFiles": {
            "id": "workbench.action.replaceInFiles",
            "label": "Ctrl+Shift+H",
            "isNative": true
        },
        "workbench.view.connections": {
            "id": "workbench.view.connections",
            "label": "Ctrl+G",
            "isNative": true
        },
        "workbench.view.taskHistory": {
            "id": "workbench.view.taskHistory",
            "label": "Ctrl+T",
            "isNative": true
        },
        "workbench.view.explorer": {
            "id": "workbench.view.explorer",
            "label": "Ctrl+Shift+E",
            "isNative": true
        },
        "workbench.view.search": {
            "id": "workbench.view.search",
            "label": "Ctrl+Shift+F",
            "isNative": true
        },
        "workbench.view.scm": {
            "id": "workbench.view.scm",
            "label": "Ctrl+Shift+G",
            "isNative": true
        },
        "workbench.view.extensions": {
            "id": "workbench.view.extensions",
            "label": "Ctrl+Shift+X",
            "isNative": true
        },
        "workbench.action.output.toggleOutput": {
            "id": "workbench.action.output.toggleOutput",
            "label": "Ctrl+K Ctrl+H",
            "isNative": false
        },
        "workbench.action.terminal.toggleTerminal": {
            "id": "workbench.action.terminal.toggleTerminal",
            "label": "Ctrl+`",
            "isNative": true
        },
        "workbench.actions.view.problems": {
            "id": "workbench.actions.view.problems",
            "label": "Ctrl+Shift+M",
            "isNative": true
        },
        "workbench.action.showCommands": {
            "id": "workbench.action.showCommands",
            "label": "Ctrl+Shift+P",
            "isNative": true
        },
        "workbench.action.toggleFullScreen": {
            "id": "workbench.action.toggleFullScreen",
            "label": "F11",
            "isNative": true
        },
        "workbench.action.toggleZenMode": {
            "id": "workbench.action.toggleZenMode",
            "label": "Ctrl+K Z",
            "isNative": false
        },
        "workbench.action.toggleEditorGroupLayout": {
            "id": "workbench.action.toggleEditorGroupLayout",
            "label": "Shift+Alt+1",
            "isNative": true
        },
        "workbench.action.toggleSidebarVisibility": {
            "id": "workbench.action.toggleSidebarVisibility",
            "label": "Ctrl+B",
            "isNative": true
        },
        "workbench.action.zoomIn": {
            "id": "workbench.action.zoomIn",
            "label": "Ctrl+=",
            "isNative": true
        },
        "workbench.action.zoomOut": {
            "id": "workbench.action.zoomOut",
            "label": "Ctrl+-",
            "isNative": true
        },
        "workbench.action.zoomReset": {
            "id": "workbench.action.zoomReset",
            "label": "Ctrl+NumPad0",
            "isNative": false
        }
    },
    "theme": "vs-dark sql-theme-carbon-themes-dark_carbon-json",
    "themeBackground": "#212121",
    "windowsState": {
        "openedWindows": [],
        "lastActiveWindow": {
            "folderPath": "/home/wenceslao1207/Downloads",
            "backupPath": "/home/wenceslao1207/.config/sqlops/Backups/c09473ed65f001e224dc1eeea32ac6ea",
            "uiState": {
                "mode": 1,
                "x": 971,
                "y": 21,
                "width": 928,
                "height": 1038
            }
        }
    },
    "pickerWorkingDir": "/home/wenceslao1207/Downloads/DatabaseSchema",
    "openedPathsList": {
        "workspaces": [
            "/home/wenceslao1207/Downloads"
        ],
        "files": [
            "/home/wenceslao1207/Downloads/DatabaseSchema/RBAC_Schema.sql"
        ]
    }
}